,SANGER_SAMPLE_ID,SUPPLIER_SAMPLE_NAME,PLATE,COMMON_NAME,CELL_NAME,AGE,SEX
1,5317STDY7723285,F1_34+38+_A1,PLATE 1,femur 34+38+ A1,X5317STDY7723285,20 pcw,male
2,5317STDY7723286,F1_34+38+_A2,PLATE 1,femur 34+38+ A2,X5317STDY7723286,20 pcw,male
3,5317STDY7723287,F1_34+38+_A3,PLATE 1,femur 34+38+ A3,X5317STDY7723287,20 pcw,male
4,5317STDY7723288,F1_34+38+_A4,PLATE 1,femur 34+38+ A4,X5317STDY7723288,20 pcw,male
5,5317STDY7723289,F1_34+38+_A5,PLATE 1,femur 34+38+ A5,X5317STDY7723289,20 pcw,male
6,5317STDY7723290,F1_34+38+_A6,PLATE 1,femur 34+38+ A6,X5317STDY7723290,20 pcw,male
7,5317STDY7723291,F1_34+38+_A7,PLATE 1,femur 34+38+ A7,X5317STDY7723291,20 pcw,male
8,5317STDY7723292,F1_34+38+_A8,PLATE 1,femur 34+38+ A8,X5317STDY7723292,20 pcw,male
9,5317STDY7723293,F1_34+38+_A9,PLATE 1,femur 34+38+ A9,X5317STDY7723293,20 pcw,male
10,5317STDY7723294,F1_34+38+_A10,PLATE 1,femur 34+38+ A10,X5317STDY7723294,20 pcw,male
11,5317STDY7723295,F1_34+38+_A11,PLATE 1,femur 34+38+ A11,X5317STDY7723295,20 pcw,male
12,5317STDY7723296,F1_34+38+_A12,PLATE 1,femur 34+38+ A12,X5317STDY7723296,20 pcw,male
13,5317STDY7723297,F1_34+38+_B1,PLATE 1,femur 34+38+ B1,X5317STDY7723297,20 pcw,male
14,5317STDY7723298,F1_34+38+_B2,PLATE 1,femur 34+38+ B2,X5317STDY7723298,20 pcw,male
15,5317STDY7723299,F1_34+38+_B3,PLATE 1,femur 34+38+ B3,X5317STDY7723299,20 pcw,male
16,5317STDY7723300,F1_34+38+_B4,PLATE 1,femur 34+38+ B4,X5317STDY7723300,20 pcw,male
17,5317STDY7723301,F1_34+38+_B5,PLATE 1,femur 34+38+ B5,X5317STDY7723301,20 pcw,male
18,5317STDY7723302,F1_34+38+_B6,PLATE 1,femur 34+38+ B6,X5317STDY7723302,20 pcw,male
19,5317STDY7723303,F1_34+38+_B7,PLATE 1,femur 34+38+ B7,X5317STDY7723303,20 pcw,male
20,5317STDY7723304,F1_34+38+_B8,PLATE 1,femur 34+38+ B8,X5317STDY7723304,20 pcw,male
21,5317STDY7723305,F1_34+38+_B9,PLATE 1,femur 34+38+ B9,X5317STDY7723305,20 pcw,male
22,5317STDY7723306,F1_34+38+_B10,PLATE 1,femur 34+38+ B10,X5317STDY7723306,20 pcw,male
23,5317STDY7723307,F1_34+38+_B11,PLATE 1,femur 34+38+ B11,X5317STDY7723307,20 pcw,male
24,5317STDY7723308,F1_34+38+_B12,PLATE 1,femur 34+38+ B12,X5317STDY7723308,20 pcw,male
25,5317STDY7723309,F1_34+38+_C1,PLATE 1,femur 34+38+ C1,X5317STDY7723309,20 pcw,male
26,5317STDY7723310,F1_34+38+_C2,PLATE 1,femur 34+38+ C2,X5317STDY7723310,20 pcw,male
27,5317STDY7723311,F1_34+38+_C3,PLATE 1,femur 34+38+ C3,X5317STDY7723311,20 pcw,male
28,5317STDY7723312,F1_34+38+_C4,PLATE 1,femur 34+38+ C4,X5317STDY7723312,20 pcw,male
29,5317STDY7723313,F1_34+38+_C5,PLATE 1,femur 34+38+ C5,X5317STDY7723313,20 pcw,male
30,5317STDY7723314,F1_34+38+_C6,PLATE 1,femur 34+38+ C6,X5317STDY7723314,20 pcw,male
31,5317STDY7723315,F1_34+38+_C7,PLATE 1,femur 34+38+ C7,X5317STDY7723315,20 pcw,male
32,5317STDY7723316,F1_34+38+_C8,PLATE 1,femur 34+38+ C8,X5317STDY7723316,20 pcw,male
33,5317STDY7723317,F1_34+38+_C9,PLATE 1,femur 34+38+ C9,X5317STDY7723317,20 pcw,male
34,5317STDY7723318,F1_34+38+_C10,PLATE 1,femur 34+38+ C10,X5317STDY7723318,20 pcw,male
35,5317STDY7723319,F1_34+38+_C11,PLATE 1,femur 34+38+ C11,X5317STDY7723319,20 pcw,male
36,5317STDY7723320,F1_34+38+_C12,PLATE 1,femur 34+38+ C12,X5317STDY7723320,20 pcw,male
37,5317STDY7723321,F1_34+38+_D1,PLATE 1,femur 34+38+ D1,X5317STDY7723321,20 pcw,male
38,5317STDY7723322,F1_34+38+_D2,PLATE 1,femur 34+38+ D2,X5317STDY7723322,20 pcw,male
39,5317STDY7723323,F1_34+38+_D3,PLATE 1,femur 34+38+ D3,X5317STDY7723323,20 pcw,male
40,5317STDY7723324,F1_34+38+_D4,PLATE 1,femur 34+38+ D4,X5317STDY7723324,20 pcw,male
41,5317STDY7723325,F1_34+38+_D5,PLATE 1,femur 34+38+ D5,X5317STDY7723325,20 pcw,male
42,5317STDY7723326,F1_34+38+_D6,PLATE 1,femur 34+38+ D6,X5317STDY7723326,20 pcw,male
43,5317STDY7723327,F1_34+38+_D7,PLATE 1,femur 34+38+ D7,X5317STDY7723327,20 pcw,male
44,5317STDY7723328,F1_34+38+_D8,PLATE 1,femur 34+38+ D8,X5317STDY7723328,20 pcw,male
45,5317STDY7723329,F1_34+38+_D9,PLATE 1,femur 34+38+ D9,X5317STDY7723329,20 pcw,male
46,5317STDY7723330,F1_34+38+_D10,PLATE 1,femur 34+38+ D10,X5317STDY7723330,20 pcw,male
47,5317STDY7723331,F1_34+38-_E1,PLATE 1,femur 34+38- E1,X5317STDY7723331,20 pcw,male
48,5317STDY7723332,F1_34+38-_E2,PLATE 1,femur 34+38- E2,X5317STDY7723332,20 pcw,male
49,5317STDY7723333,F1_34+38-_E3,PLATE 1,femur 34+38- E3,X5317STDY7723333,20 pcw,male
50,5317STDY7723334,F1_34+38-_E4,PLATE 1,femur 34+38- E4,X5317STDY7723334,20 pcw,male
51,5317STDY7723335,F1_34+38-_E5,PLATE 1,femur 34+38- E5,X5317STDY7723335,20 pcw,male
52,5317STDY7723336,F1_34+38-_E6,PLATE 1,femur 34+38- E6,X5317STDY7723336,20 pcw,male
53,5317STDY7723337,F1_34+38-_E7,PLATE 1,femur 34+38- E7,X5317STDY7723337,20 pcw,male
54,5317STDY7723338,F1_34+38-_E8,PLATE 1,femur 34+38- E8,X5317STDY7723338,20 pcw,male
55,5317STDY7723339,F1_34+38-_E9,PLATE 1,femur 34+38- E9,X5317STDY7723339,20 pcw,male
56,5317STDY7723340,F1_34+38-_E10,PLATE 1,femur 34+38- E10,X5317STDY7723340,20 pcw,male
57,5317STDY7723341,F1_34+38-_E11,PLATE 1,femur 34+38- E11,X5317STDY7723341,20 pcw,male
58,5317STDY7723342,F1_34+38-_E12,PLATE 1,femur 34+38- E12,X5317STDY7723342,20 pcw,male
59,5317STDY7723343,F1_34+38-_F1,PLATE 1,femur 34+38- F1,X5317STDY7723343,20 pcw,male
60,5317STDY7723344,F1_34+38-_F2,PLATE 1,femur 34+38- F2,X5317STDY7723344,20 pcw,male
61,5317STDY7723345,F1_34+38-_F3,PLATE 1,femur 34+38- F3,X5317STDY7723345,20 pcw,male
62,5317STDY7723346,F1_34+38-_F4,PLATE 1,femur 34+38- F4,X5317STDY7723346,20 pcw,male
63,5317STDY7723347,F1_34+38-_F5,PLATE 1,femur 34+38- F5,X5317STDY7723347,20 pcw,male
64,5317STDY7723348,F1_34+38-_F6,PLATE 1,femur 34+38- F6,X5317STDY7723348,20 pcw,male
65,5317STDY7723349,F1_34+38-_F7,PLATE 1,femur 34+38- F7,X5317STDY7723349,20 pcw,male
66,5317STDY7723350,F1_34+38-_F8,PLATE 1,femur 34+38- F8,X5317STDY7723350,20 pcw,male
67,5317STDY7723351,F1_34+38-_F9,PLATE 1,femur 34+38- F9,X5317STDY7723351,20 pcw,male
68,5317STDY7723352,F1_34+38-_F10,PLATE 1,femur 34+38- F10,X5317STDY7723352,20 pcw,male
69,5317STDY7723353,F1_34+38-_F11,PLATE 1,femur 34+38- F11,X5317STDY7723353,20 pcw,male
70,5317STDY7723354,F1_34+38-_F12,PLATE 1,femur 34+38- F12,X5317STDY7723354,20 pcw,male
71,5317STDY7723355,F1_34+38-_G1,PLATE 1,femur 34+38- G1,X5317STDY7723355,20 pcw,male
72,5317STDY7723356,F1_34+38-_G2,PLATE 1,femur 34+38- G2,X5317STDY7723356,20 pcw,male
73,5317STDY7723357,F1_34+38-_G3,PLATE 1,femur 34+38- G3,X5317STDY7723357,20 pcw,male
74,5317STDY7723358,F1_34+38-_G4,PLATE 1,femur 34+38- G4,X5317STDY7723358,20 pcw,male
75,5317STDY7723359,F1_34+38-_G5,PLATE 1,femur 34+38- G5,X5317STDY7723359,20 pcw,male
76,5317STDY7723360,F1_34+38-_G6,PLATE 1,femur 34+38- G6,X5317STDY7723360,20 pcw,male
77,5317STDY7723361,F1_34+38-_G7,PLATE 1,femur 34+38- G7,X5317STDY7723361,20 pcw,male
78,5317STDY7723362,F1_34+38-_G8,PLATE 1,femur 34+38- G8,X5317STDY7723362,20 pcw,male
79,5317STDY7723363,F1_34+38-_G9,PLATE 1,femur 34+38- G9,X5317STDY7723363,20 pcw,male
80,5317STDY7723364,F1_34+38-_G10,PLATE 1,femur 34+38- G10,X5317STDY7723364,20 pcw,male
81,5317STDY7723365,F1_34+38-_G11,PLATE 1,femur 34+38- G11,X5317STDY7723365,20 pcw,male
82,5317STDY7723366,F1_34+38-_G12,PLATE 1,femur 34+38- G12,X5317STDY7723366,20 pcw,male
83,5317STDY7723367,F1_34+38-_H1,PLATE 1,femur 34+38- H1,X5317STDY7723367,20 pcw,male
84,5317STDY7723368,F1_34+38-_H2,PLATE 1,femur 34+38- H2,X5317STDY7723368,20 pcw,male
85,5317STDY7723369,F1_34+38-_H3,PLATE 1,femur 34+38- H3,X5317STDY7723369,20 pcw,male
86,5317STDY7723370,F1_34+38-_H4,PLATE 1,femur 34+38- H4,X5317STDY7723370,20 pcw,male
87,5317STDY7723371,F1_34+38-_H5,PLATE 1,femur 34+38- H5,X5317STDY7723371,20 pcw,male
88,5317STDY7723372,F1_34+38-_H6,PLATE 1,femur 34+38- H6,X5317STDY7723372,20 pcw,male
89,5317STDY7723373,F1_34+38-_H7,PLATE 1,femur 34+38- H7,X5317STDY7723373,20 pcw,male
90,5317STDY7723374,F1_34+38-_H8,PLATE 1,femur 34+38- H8,X5317STDY7723374,20 pcw,male
91,5317STDY7723375,F1_34+38-_H9,PLATE 1,femur 34+38- H9,X5317STDY7723375,20 pcw,male
92,5317STDY7723376,F1_34+38-_H10,PLATE 1,femur 34+38- H10,X5317STDY7723376,20 pcw,male
93,5317STDY7723377,F2_34+38+_A1,PLATE 4,femur 34+38+ A1,X5317STDY7723377,20 pcw,male
94,5317STDY7723378,F2_34+38+_A2,PLATE 4,femur 34+38+ A2,X5317STDY7723378,20 pcw,male
95,5317STDY7723379,F2_34+38+_A3,PLATE 4,femur 34+38+ A3,X5317STDY7723379,20 pcw,male
96,5317STDY7723380,F2_34+38+_A4,PLATE 4,femur 34+38+ A4,X5317STDY7723380,20 pcw,male
97,5317STDY7723381,F2_34+38+_A5,PLATE 4,femur 34+38+ A5,X5317STDY7723381,20 pcw,male
98,5317STDY7723382,F2_34+38+_A6,PLATE 4,femur 34+38+ A6,X5317STDY7723382,20 pcw,male
99,5317STDY7723383,F2_34+38+_A7,PLATE 4,femur 34+38+ A7,X5317STDY7723383,20 pcw,male
100,5317STDY7723384,F2_34+38+_A8,PLATE 4,femur 34+38+ A8,X5317STDY7723384,20 pcw,male
101,5317STDY7723385,F2_34+38+_A9,PLATE 4,femur 34+38+ A9,X5317STDY7723385,20 pcw,male
102,5317STDY7723386,F2_34+38+_A10,PLATE 4,femur 34+38+ A10,X5317STDY7723386,20 pcw,male
103,5317STDY7723387,F2_34+38+_A11,PLATE 4,femur 34+38+ A11,X5317STDY7723387,20 pcw,male
104,5317STDY7723388,F2_34+38+_A12,PLATE 4,femur 34+38+ A12,X5317STDY7723388,20 pcw,male
105,5317STDY7723389,F2_34+38+_B1,PLATE 4,femur 34+38+ B1,X5317STDY7723389,20 pcw,male
106,5317STDY7723390,F2_34+38+_B2,PLATE 4,femur 34+38+ B2,X5317STDY7723390,20 pcw,male
107,5317STDY7723391,F2_34+38+_B3,PLATE 4,femur 34+38+ B3,X5317STDY7723391,20 pcw,male
108,5317STDY7723392,F2_34+38+_B4,PLATE 4,femur 34+38+ B4,X5317STDY7723392,20 pcw,male
109,5317STDY7723393,F2_34+38+_B5,PLATE 4,femur 34+38+ B5,X5317STDY7723393,20 pcw,male
110,5317STDY7723394,F2_34+38+_B6,PLATE 4,femur 34+38+ B6,X5317STDY7723394,20 pcw,male
111,5317STDY7723395,F2_34+38+_B7,PLATE 4,femur 34+38+ B7,X5317STDY7723395,20 pcw,male
112,5317STDY7723396,F2_34+38+_B8,PLATE 4,femur 34+38+ B8,X5317STDY7723396,20 pcw,male
113,5317STDY7723397,F2_34+38+_B9,PLATE 4,femur 34+38+ B9,X5317STDY7723397,20 pcw,male
114,5317STDY7723398,F2_34+38+_B10,PLATE 4,femur 34+38+ B10,X5317STDY7723398,20 pcw,male
115,5317STDY7723399,F2_34+38+_B11,PLATE 4,femur 34+38+ B11,X5317STDY7723399,20 pcw,male
116,5317STDY7723400,F2_34+38+_B12,PLATE 4,femur 34+38+ B12,X5317STDY7723400,20 pcw,male
117,5317STDY7723401,F2_34+38+_C1,PLATE 4,femur 34+38+ C1,X5317STDY7723401,20 pcw,male
118,5317STDY7723402,F2_34+38+_C2,PLATE 4,femur 34+38+ C2,X5317STDY7723402,20 pcw,male
119,5317STDY7723403,F2_34+38+_C3,PLATE 4,femur 34+38+ C3,X5317STDY7723403,20 pcw,male
120,5317STDY7723404,F2_34+38+_C4,PLATE 4,femur 34+38+ C4,X5317STDY7723404,20 pcw,male
121,5317STDY7723405,F2_34+38+_C5,PLATE 4,femur 34+38+ C5,X5317STDY7723405,20 pcw,male
122,5317STDY7723406,F2_34+38+_C6,PLATE 4,femur 34+38+ C6,X5317STDY7723406,20 pcw,male
123,5317STDY7723407,F2_34+38+_C7,PLATE 4,femur 34+38+ C7,X5317STDY7723407,20 pcw,male
124,5317STDY7723408,F2_34+38+_C8,PLATE 4,femur 34+38+ C8,X5317STDY7723408,20 pcw,male
125,5317STDY7723409,F2_34+38+_C9,PLATE 4,femur 34+38+ C9,X5317STDY7723409,20 pcw,male
126,5317STDY7723410,F2_34+38+_C10,PLATE 4,femur 34+38+ C10,X5317STDY7723410,20 pcw,male
127,5317STDY7723411,F2_34+38+_C11,PLATE 4,femur 34+38+ C11,X5317STDY7723411,20 pcw,male
128,5317STDY7723412,F2_34+38+_C12,PLATE 4,femur 34+38+ C12,X5317STDY7723412,20 pcw,male
129,5317STDY7723413,F2_34+38+_D1,PLATE 4,femur 34+38+ D1,X5317STDY7723413,20 pcw,male
130,5317STDY7723414,F2_34+38+_D2,PLATE 4,femur 34+38+ D2,X5317STDY7723414,20 pcw,male
131,5317STDY7723415,F2_34+38+_D3,PLATE 4,femur 34+38+ D3,X5317STDY7723415,20 pcw,male
132,5317STDY7723416,F2_34+38+_D4,PLATE 4,femur 34+38+ D4,X5317STDY7723416,20 pcw,male
133,5317STDY7723417,F2_34+38+_D5,PLATE 4,femur 34+38+ D5,X5317STDY7723417,20 pcw,male
134,5317STDY7723418,F2_34+38+_D6,PLATE 4,femur 34+38+ D6,X5317STDY7723418,20 pcw,male
135,5317STDY7723419,F2_34+38+_D7,PLATE 4,femur 34+38+ D7,X5317STDY7723419,20 pcw,male
136,5317STDY7723420,F2_34+38+_D8,PLATE 4,femur 34+38+ D8,X5317STDY7723420,20 pcw,male
137,5317STDY7723421,F2_34+38+_D9,PLATE 4,femur 34+38+ D9,X5317STDY7723421,20 pcw,male
138,5317STDY7723422,F2_34+38+_D10,PLATE 4,femur 34+38+ D10,X5317STDY7723422,20 pcw,male
139,5317STDY7723423,F2_34+38-_E1,PLATE 4,femur 34+38- E1,X5317STDY7723423,20 pcw,male
140,5317STDY7723424,F2_34+38-_E2,PLATE 4,femur 34+38- E2,X5317STDY7723424,20 pcw,male
141,5317STDY7723425,F2_34+38-_E3,PLATE 4,femur 34+38- E3,X5317STDY7723425,20 pcw,male
142,5317STDY7723426,F2_34+38-_E4,PLATE 4,femur 34+38- E4,X5317STDY7723426,20 pcw,male
143,5317STDY7723427,F2_34+38-_E5,PLATE 4,femur 34+38- E5,X5317STDY7723427,20 pcw,male
144,5317STDY7723428,F2_34+38-_E6,PLATE 4,femur 34+38- E6,X5317STDY7723428,20 pcw,male
145,5317STDY7723429,F2_34+38-_E7,PLATE 4,femur 34+38- E7,X5317STDY7723429,20 pcw,male
146,5317STDY7723430,F2_34+38-_E8,PLATE 4,femur 34+38- E8,X5317STDY7723430,20 pcw,male
147,5317STDY7723431,F2_34+38-_E9,PLATE 4,femur 34+38- E9,X5317STDY7723431,20 pcw,male
148,5317STDY7723432,F2_34+38-_E10,PLATE 4,femur 34+38- E10,X5317STDY7723432,20 pcw,male
149,5317STDY7723433,F2_34+38-_E11,PLATE 4,femur 34+38- E11,X5317STDY7723433,20 pcw,male
150,5317STDY7723434,F2_34+38-_E12,PLATE 4,femur 34+38- E12,X5317STDY7723434,20 pcw,male
151,5317STDY7723435,F2_34+38-_F1,PLATE 4,femur 34+38- F1,X5317STDY7723435,20 pcw,male
152,5317STDY7723436,F2_34+38-_F2,PLATE 4,femur 34+38- F2,X5317STDY7723436,20 pcw,male
153,5317STDY7723437,F2_34+38-_F3,PLATE 4,femur 34+38- F3,X5317STDY7723437,20 pcw,male
154,5317STDY7723438,F2_34+38-_F4,PLATE 4,femur 34+38- F4,X5317STDY7723438,20 pcw,male
155,5317STDY7723439,F2_34+38-_F5,PLATE 4,femur 34+38- F5,X5317STDY7723439,20 pcw,male
156,5317STDY7723440,F2_34+38-_F6,PLATE 4,femur 34+38- F6,X5317STDY7723440,20 pcw,male
157,5317STDY7723441,F2_34+38-_F7,PLATE 4,femur 34+38- F7,X5317STDY7723441,20 pcw,male
158,5317STDY7723442,F2_34+38-_F8,PLATE 4,femur 34+38- F8,X5317STDY7723442,20 pcw,male
159,5317STDY7723443,F2_34+38-_F9,PLATE 4,femur 34+38- F9,X5317STDY7723443,20 pcw,male
160,5317STDY7723444,F2_34+38-_F10,PLATE 4,femur 34+38- F10,X5317STDY7723444,20 pcw,male
161,5317STDY7723445,F2_34+38-_F11,PLATE 4,femur 34+38- F11,X5317STDY7723445,20 pcw,male
162,5317STDY7723446,F2_34+38-_F12,PLATE 4,femur 34+38- F12,X5317STDY7723446,20 pcw,male
163,5317STDY7723447,F2_34+38-_G1,PLATE 4,femur 34+38- G1,X5317STDY7723447,20 pcw,male
164,5317STDY7723448,F2_34+38-_G2,PLATE 4,femur 34+38- G2,X5317STDY7723448,20 pcw,male
165,5317STDY7723449,F2_34+38-_G3,PLATE 4,femur 34+38- G3,X5317STDY7723449,20 pcw,male
166,5317STDY7723450,F2_34+38-_G4,PLATE 4,femur 34+38- G4,X5317STDY7723450,20 pcw,male
167,5317STDY7723451,F2_34+38-_G5,PLATE 4,femur 34+38- G5,X5317STDY7723451,20 pcw,male
168,5317STDY7723452,F2_34+38-_G6,PLATE 4,femur 34+38- G6,X5317STDY7723452,20 pcw,male
169,5317STDY7723453,F2_34+38-_G7,PLATE 4,femur 34+38- G7,X5317STDY7723453,20 pcw,male
170,5317STDY7723454,F2_34+38-_G8,PLATE 4,femur 34+38- G8,X5317STDY7723454,20 pcw,male
171,5317STDY7723455,F2_34+38-_G9,PLATE 4,femur 34+38- G9,X5317STDY7723455,20 pcw,male
172,5317STDY7723456,F2_34+38-_G10,PLATE 4,femur 34+38- G10,X5317STDY7723456,20 pcw,male
173,5317STDY7723457,F2_34+38-_G11,PLATE 4,femur 34+38- G11,X5317STDY7723457,20 pcw,male
174,5317STDY7723458,F2_34+38-_G12,PLATE 4,femur 34+38- G12,X5317STDY7723458,20 pcw,male
175,5317STDY7723459,F2_34+38-_H1,PLATE 4,femur 34+38- H1,X5317STDY7723459,20 pcw,male
176,5317STDY7723460,F2_34+38-_H2,PLATE 4,femur 34+38- H2,X5317STDY7723460,20 pcw,male
177,5317STDY7723461,F2_34+38-_H3,PLATE 4,femur 34+38- H3,X5317STDY7723461,20 pcw,male
178,5317STDY7723462,F2_34+38-_H4,PLATE 4,femur 34+38- H4,X5317STDY7723462,20 pcw,male
179,5317STDY7723463,F2_34+38-_H5,PLATE 4,femur 34+38- H5,X5317STDY7723463,20 pcw,male
180,5317STDY7723464,F2_34+38-_H6,PLATE 4,femur 34+38- H6,X5317STDY7723464,20 pcw,male
181,5317STDY7723465,F2_34+38-_H7,PLATE 4,femur 34+38- H7,X5317STDY7723465,20 pcw,male
182,5317STDY7723466,F2_34+38-_H8,PLATE 4,femur 34+38- H8,X5317STDY7723466,20 pcw,male
183,5317STDY7723467,F2_34+38-_H9,PLATE 4,femur 34+38- H9,X5317STDY7723467,20 pcw,male
184,5317STDY7723468,F2_34+38-_H10,PLATE 4,femur 34+38- H10,X5317STDY7723468,20 pcw,male
185,5317STDY7723469,L_34+38-_A1,PLATE 6,liver 34+38- A1,X5317STDY7723469,20 pcw,male
186,5317STDY7723470,L_34+38-_A2,PLATE 6,liver 34+38- A2,X5317STDY7723470,20 pcw,male
187,5317STDY7723471,L_34+38-_A3,PLATE 6,liver 34+38- A3,X5317STDY7723471,20 pcw,male
188,5317STDY7723472,L_34+38-_A4,PLATE 6,liver 34+38- A4,X5317STDY7723472,20 pcw,male
189,5317STDY7723473,L_34+38-_A5,PLATE 6,liver 34+38- A5,X5317STDY7723473,20 pcw,male
190,5317STDY7723474,L_34+38-_A6,PLATE 6,liver 34+38- A6,X5317STDY7723474,20 pcw,male
191,5317STDY7723475,L_34+38-_A7,PLATE 6,liver 34+38- A7,X5317STDY7723475,20 pcw,male
192,5317STDY7723476,L_34+38-_A8,PLATE 6,liver 34+38- A8,X5317STDY7723476,20 pcw,male
193,5317STDY7723477,L_34+38-_A9,PLATE 6,liver 34+38- A9,X5317STDY7723477,20 pcw,male
194,5317STDY7723478,L_34+38-_A10,PLATE 6,liver 34+38- A10,X5317STDY7723478,20 pcw,male
195,5317STDY7723479,L_34+38-_A11,PLATE 6,liver 34+38- A11,X5317STDY7723479,20 pcw,male
196,5317STDY7723480,L_34+38-_A12,PLATE 6,liver 34+38- A12,X5317STDY7723480,20 pcw,male
197,5317STDY7723481,L_34+38-_B1,PLATE 6,liver 34+38- B1,X5317STDY7723481,20 pcw,male
198,5317STDY7723482,L_34+38-_B2,PLATE 6,liver 34+38- B2,X5317STDY7723482,20 pcw,male
199,5317STDY7723483,L_34+38-_B3,PLATE 6,liver 34+38- B3,X5317STDY7723483,20 pcw,male
200,5317STDY7723484,L_34+38-_B4,PLATE 6,liver 34+38- B4,X5317STDY7723484,20 pcw,male
201,5317STDY7723485,L_34+38-_B5,PLATE 6,liver 34+38- B5,X5317STDY7723485,20 pcw,male
202,5317STDY7723486,L_34+38-_B6,PLATE 6,liver 34+38- B6,X5317STDY7723486,20 pcw,male
203,5317STDY7723487,L_34+38-_B7,PLATE 6,liver 34+38- B7,X5317STDY7723487,20 pcw,male
204,5317STDY7723488,L_34+38-_B8,PLATE 6,liver 34+38- B8,X5317STDY7723488,20 pcw,male
205,5317STDY7723489,L_34+38-_B9,PLATE 6,liver 34+38- B9,X5317STDY7723489,20 pcw,male
206,5317STDY7723490,L_34+38-_B10,PLATE 6,liver 34+38- B10,X5317STDY7723490,20 pcw,male
207,5317STDY7723491,L_34+38-_B11,PLATE 6,liver 34+38- B11,X5317STDY7723491,20 pcw,male
208,5317STDY7723492,L_34+38-_B12,PLATE 6,liver 34+38- B12,X5317STDY7723492,20 pcw,male
209,5317STDY7723493,L_34+38-_C1,PLATE 6,liver 34+38- C1,X5317STDY7723493,20 pcw,male
210,5317STDY7723494,L_34+38-_C2,PLATE 6,liver 34+38- C2,X5317STDY7723494,20 pcw,male
211,5317STDY7723495,L_34+38-_C3,PLATE 6,liver 34+38- C3,X5317STDY7723495,20 pcw,male
212,5317STDY7723496,L_34+38-_C4,PLATE 6,liver 34+38- C4,X5317STDY7723496,20 pcw,male
213,5317STDY7723497,L_34+38-_C5,PLATE 6,liver 34+38- C5,X5317STDY7723497,20 pcw,male
214,5317STDY7723498,L_34+38-_C6,PLATE 6,liver 34+38- C6,X5317STDY7723498,20 pcw,male
215,5317STDY7723499,L_34+38-_C7,PLATE 6,liver 34+38- C7,X5317STDY7723499,20 pcw,male
216,5317STDY7723500,L_34+38-_C8,PLATE 6,liver 34+38- C8,X5317STDY7723500,20 pcw,male
217,5317STDY7723501,L_34+38-_C9,PLATE 6,liver 34+38- C9,X5317STDY7723501,20 pcw,male
218,5317STDY7723502,L_34+38-_C10,PLATE 6,liver 34+38- C10,X5317STDY7723502,20 pcw,male
219,5317STDY7723503,L_34+38-_C11,PLATE 6,liver 34+38- C11,X5317STDY7723503,20 pcw,male
220,5317STDY7723504,L_34+38-_C12,PLATE 6,liver 34+38- C12,X5317STDY7723504,20 pcw,male
221,5317STDY7723505,L_34+38-_D1,PLATE 6,liver 34+38- D1,X5317STDY7723505,20 pcw,male
222,5317STDY7723506,L_34+38-_D2,PLATE 6,liver 34+38- D2,X5317STDY7723506,20 pcw,male
223,5317STDY7723507,L_34+38-_D3,PLATE 6,liver 34+38- D3,X5317STDY7723507,20 pcw,male
224,5317STDY7723508,L_34+38-_D4,PLATE 6,liver 34+38- D4,X5317STDY7723508,20 pcw,male
225,5317STDY7723509,L_34+38-_D5,PLATE 6,liver 34+38- D5,X5317STDY7723509,20 pcw,male
226,5317STDY7723510,L_34+38-_D6,PLATE 6,liver 34+38- D6,X5317STDY7723510,20 pcw,male
227,5317STDY7723511,L_34+38-_D7,PLATE 6,liver 34+38- D7,X5317STDY7723511,20 pcw,male
228,5317STDY7723512,L_34+38-_D8,PLATE 6,liver 34+38- D8,X5317STDY7723512,20 pcw,male
229,5317STDY7723513,L_34+38-_D9,PLATE 6,liver 34+38- D9,X5317STDY7723513,20 pcw,male
230,5317STDY7723514,L_34+38-_D10,PLATE 6,liver 34+38- D10,X5317STDY7723514,20 pcw,male
231,5317STDY7723515,L_34+38+_E1,PLATE 6,liver 34+38+ E1,X5317STDY7723515,20 pcw,male
232,5317STDY7723516,L_34+38+_E2,PLATE 6,liver 34+38+ E2,X5317STDY7723516,20 pcw,male
233,5317STDY7723517,L_34+38+_E3,PLATE 6,liver 34+38+ E3,X5317STDY7723517,20 pcw,male
234,5317STDY7723518,L_34+38+_E4,PLATE 6,liver 34+38+ E4,X5317STDY7723518,20 pcw,male
235,5317STDY7723519,L_34+38+_E5,PLATE 6,liver 34+38+ E5,X5317STDY7723519,20 pcw,male
236,5317STDY7723520,L_34+38+_E6,PLATE 6,liver 34+38+ E6,X5317STDY7723520,20 pcw,male
237,5317STDY7723521,L_34+38+_E7,PLATE 6,liver 34+38+ E7,X5317STDY7723521,20 pcw,male
238,5317STDY7723522,L_34+38+_E8,PLATE 6,liver 34+38+ E8,X5317STDY7723522,20 pcw,male
239,5317STDY7723523,L_34+38+_E9,PLATE 6,liver 34+38+ E9,X5317STDY7723523,20 pcw,male
240,5317STDY7723524,L_34+38+_E10,PLATE 6,liver 34+38+ E10,X5317STDY7723524,20 pcw,male
241,5317STDY7723525,L_34+38+_E11,PLATE 6,liver 34+38+ E11,X5317STDY7723525,20 pcw,male
242,5317STDY7723526,L_34+38+_E12,PLATE 6,liver 34+38+ E12,X5317STDY7723526,20 pcw,male
243,5317STDY7723527,L_34+38+_F1,PLATE 6,liver 34+38+ F1,X5317STDY7723527,20 pcw,male
244,5317STDY7723528,L_34+38+_F2,PLATE 6,liver 34+38+ F2,X5317STDY7723528,20 pcw,male
245,5317STDY7723529,L_34+38+_F3,PLATE 6,liver 34+38+ F3,X5317STDY7723529,20 pcw,male
246,5317STDY7723530,L_34+38+_F4,PLATE 6,liver 34+38+ F4,X5317STDY7723530,20 pcw,male
247,5317STDY7723531,L_34+38+_F5,PLATE 6,liver 34+38+ F5,X5317STDY7723531,20 pcw,male
248,5317STDY7723532,L_34+38+_F6,PLATE 6,liver 34+38+ F6,X5317STDY7723532,20 pcw,male
249,5317STDY7723533,L_34+38+_F7,PLATE 6,liver 34+38+ F7,X5317STDY7723533,20 pcw,male
250,5317STDY7723534,L_34+38+_F8,PLATE 6,liver 34+38+ F8,X5317STDY7723534,20 pcw,male
251,5317STDY7723535,L_34+38+_F9,PLATE 6,liver 34+38+ F9,X5317STDY7723535,20 pcw,male
252,5317STDY7723536,L_34+38+_F10,PLATE 6,liver 34+38+ F10,X5317STDY7723536,20 pcw,male
253,5317STDY7723537,L_34+38+_F11,PLATE 6,liver 34+38+ F11,X5317STDY7723537,20 pcw,male
254,5317STDY7723538,L_34+38+_F12,PLATE 6,liver 34+38+ F12,X5317STDY7723538,20 pcw,male
255,5317STDY7723539,L_34+38+_G1,PLATE 6,liver 34+38+ G1,X5317STDY7723539,20 pcw,male
256,5317STDY7723540,L_34+38+_G2,PLATE 6,liver 34+38+ G2,X5317STDY7723540,20 pcw,male
257,5317STDY7723541,L_34+38+_G3,PLATE 6,liver 34+38+ G3,X5317STDY7723541,20 pcw,male
258,5317STDY7723542,L_34+38+_G4,PLATE 6,liver 34+38+ G4,X5317STDY7723542,20 pcw,male
259,5317STDY7723543,L_34+38+_G5,PLATE 6,liver 34+38+ G5,X5317STDY7723543,20 pcw,male
260,5317STDY7723544,L_34+38+_G6,PLATE 6,liver 34+38+ G6,X5317STDY7723544,20 pcw,male
261,5317STDY7723545,L_34+38+_G7,PLATE 6,liver 34+38+ G7,X5317STDY7723545,20 pcw,male
262,5317STDY7723546,L_34+38+_G8,PLATE 6,liver 34+38+ G8,X5317STDY7723546,20 pcw,male
263,5317STDY7723547,L_34+38+_G9,PLATE 6,liver 34+38+ G9,X5317STDY7723547,20 pcw,male
264,5317STDY7723548,L_34+38+_G10,PLATE 6,liver 34+38+ G10,X5317STDY7723548,20 pcw,male
265,5317STDY7723549,L_34+38+_G11,PLATE 6,liver 34+38+ G11,X5317STDY7723549,20 pcw,male
266,5317STDY7723550,L_34+38+_G12,PLATE 6,liver 34+38+ G12,X5317STDY7723550,20 pcw,male
267,5317STDY7723551,L_34+38+_H1,PLATE 6,liver 34+38+ H1,X5317STDY7723551,20 pcw,male
268,5317STDY7723552,L_34+38+_H2,PLATE 6,liver 34+38+ H2,X5317STDY7723552,20 pcw,male
269,5317STDY7723553,L_34+38+_H3,PLATE 6,liver 34+38+ H3,X5317STDY7723553,20 pcw,male
270,5317STDY7723554,L_34+38+_H4,PLATE 6,liver 34+38+ H4,X5317STDY7723554,20 pcw,male
271,5317STDY7723555,L_34+38+_H5,PLATE 6,liver 34+38+ H5,X5317STDY7723555,20 pcw,male
272,5317STDY7723556,L_34+38+_H6,PLATE 6,liver 34+38+ H6,X5317STDY7723556,20 pcw,male
273,5317STDY7723557,L_34+38+_H7,PLATE 6,liver 34+38+ H7,X5317STDY7723557,20 pcw,male
274,5317STDY7723558,L_34+38+_H8,PLATE 6,liver 34+38+ H8,X5317STDY7723558,20 pcw,male
275,5317STDY7723559,L_34+38+_H9,PLATE 6,liver 34+38+ H9,X5317STDY7723559,20 pcw,male
276,5317STDY7723560,L_34+38+_H10,PLATE 6,liver 34+38+ H10,X5317STDY7723560,20 pcw,male
277,5317STDY7723561,F1_CMP_A1,PLATE 2,femur CMP A1,X5317STDY7723561,20 pcw,male
278,5317STDY7723562,F1_CMP_A2,PLATE 2,femur CMP A2,X5317STDY7723562,20 pcw,male
279,5317STDY7723563,F1_CMP_A3,PLATE 2,femur CMP A3,X5317STDY7723563,20 pcw,male
280,5317STDY7723564,F1_CMP_A4,PLATE 2,femur CMP A4,X5317STDY7723564,20 pcw,male
281,5317STDY7723565,F1_CMP_A5,PLATE 2,femur CMP A5,X5317STDY7723565,20 pcw,male
282,5317STDY7723566,F1_CMP_A6,PLATE 2,femur CMP A6,X5317STDY7723566,20 pcw,male
283,5317STDY7723567,F1_CMP_A7,PLATE 2,femur CMP A7,X5317STDY7723567,20 pcw,male
284,5317STDY7723568,F1_CMP_A8,PLATE 2,femur CMP A8,X5317STDY7723568,20 pcw,male
285,5317STDY7723569,F1_CMP_A9,PLATE 2,femur CMP A9,X5317STDY7723569,20 pcw,male
286,5317STDY7723570,F1_CMP_A10,PLATE 2,femur CMP A10,X5317STDY7723570,20 pcw,male
287,5317STDY7723571,F1_CMP_A11,PLATE 2,femur CMP A11,X5317STDY7723571,20 pcw,male
288,5317STDY7723572,F1_CMP_A12,PLATE 2,femur CMP A12,X5317STDY7723572,20 pcw,male
289,5317STDY7723573,F1_CMP_B1,PLATE 2,femur CMP B1,X5317STDY7723573,20 pcw,male
290,5317STDY7723574,F1_CMP_B2,PLATE 2,femur CMP B2,X5317STDY7723574,20 pcw,male
291,5317STDY7723575,F1_CMP_B3,PLATE 2,femur CMP B3,X5317STDY7723575,20 pcw,male
292,5317STDY7723576,F1_CMP_B4,PLATE 2,femur CMP B4,X5317STDY7723576,20 pcw,male
293,5317STDY7723577,F1_CMP_B5,PLATE 2,femur CMP B5,X5317STDY7723577,20 pcw,male
294,5317STDY7723578,F1_CMP_B6,PLATE 2,femur CMP B6,X5317STDY7723578,20 pcw,male
295,5317STDY7723579,F1_CMP_B7,PLATE 2,femur CMP B7,X5317STDY7723579,20 pcw,male
296,5317STDY7723580,F1_CMP_B8,PLATE 2,femur CMP B8,X5317STDY7723580,20 pcw,male
297,5317STDY7723581,F1_CMP_B9,PLATE 2,femur CMP B9,X5317STDY7723581,20 pcw,male
298,5317STDY7723582,F1_CMP_B10,PLATE 2,femur CMP B10,X5317STDY7723582,20 pcw,male
299,5317STDY7723583,F1_CMP_B11,PLATE 2,femur CMP B11,X5317STDY7723583,20 pcw,male
300,5317STDY7723584,F1_CMP_B12,PLATE 2,femur CMP B12,X5317STDY7723584,20 pcw,male
301,5317STDY7723585,F1_CMP_C1,PLATE 2,femur CMP C1,X5317STDY7723585,20 pcw,male
302,5317STDY7723586,F1_CMP_C2,PLATE 2,femur CMP C2,X5317STDY7723586,20 pcw,male
303,5317STDY7723587,F1_CMP_C3,PLATE 2,femur CMP C3,X5317STDY7723587,20 pcw,male
304,5317STDY7723588,F1_CMP_C4,PLATE 2,femur CMP C4,X5317STDY7723588,20 pcw,male
305,5317STDY7723589,F1_CMP_C5,PLATE 2,femur CMP C5,X5317STDY7723589,20 pcw,male
306,5317STDY7723590,F1_CMP_C6,PLATE 2,femur CMP C6,X5317STDY7723590,20 pcw,male
307,5317STDY7723591,F1_CMP_C7,PLATE 2,femur CMP C7,X5317STDY7723591,20 pcw,male
308,5317STDY7723592,F1_CMP_C8,PLATE 2,femur CMP C8,X5317STDY7723592,20 pcw,male
309,5317STDY7723593,F1_CMP_C9,PLATE 2,femur CMP C9,X5317STDY7723593,20 pcw,male
310,5317STDY7723594,F1_CMP_C10,PLATE 2,femur CMP C10,X5317STDY7723594,20 pcw,male
311,5317STDY7723595,F1_CMP_C11,PLATE 2,femur CMP C11,X5317STDY7723595,20 pcw,male
312,5317STDY7723596,F1_CMP_C12,PLATE 2,femur CMP C12,X5317STDY7723596,20 pcw,male
313,5317STDY7723597,F1_MEP_D1,PLATE 2,femur MEP D1,X5317STDY7723597,20 pcw,male
314,5317STDY7723598,F1_MEP_D2,PLATE 2,femur MEP D2,X5317STDY7723598,20 pcw,male
315,5317STDY7723599,F1_MEP_D3,PLATE 2,femur MEP D3,X5317STDY7723599,20 pcw,male
316,5317STDY7723600,F1_MEP_D4,PLATE 2,femur MEP D4,X5317STDY7723600,20 pcw,male
317,5317STDY7723601,F1_MEP_D5,PLATE 2,femur MEP D5,X5317STDY7723601,20 pcw,male
318,5317STDY7723602,F1_MEP_D6,PLATE 2,femur MEP D6,X5317STDY7723602,20 pcw,male
319,5317STDY7723603,F1_MEP_D7,PLATE 2,femur MEP D7,X5317STDY7723603,20 pcw,male
320,5317STDY7723604,F1_MEP_D8,PLATE 2,femur MEP D8,X5317STDY7723604,20 pcw,male
321,5317STDY7723605,F1_MEP_D9,PLATE 2,femur MEP D9,X5317STDY7723605,20 pcw,male
322,5317STDY7723606,F1_MEP_D10,PLATE 2,femur MEP D10,X5317STDY7723606,20 pcw,male
323,5317STDY7723607,F1_MEP_D11,PLATE 2,femur MEP D11,X5317STDY7723607,20 pcw,male
324,5317STDY7723608,F1_MEP_D12,PLATE 2,femur MEP D12,X5317STDY7723608,20 pcw,male
325,5317STDY7723609,F1_MEP_E1,PLATE 2,femur MEP E1,X5317STDY7723609,20 pcw,male
326,5317STDY7723610,F1_MEP_E2,PLATE 2,femur MEP E2,X5317STDY7723610,20 pcw,male
327,5317STDY7723611,F1_MEP_E3,PLATE 2,femur MEP E3,X5317STDY7723611,20 pcw,male
328,5317STDY7723612,F1_MEP_E4,PLATE 2,femur MEP E4,X5317STDY7723612,20 pcw,male
329,5317STDY7723613,F1_MEP_E5,PLATE 2,femur MEP E5,X5317STDY7723613,20 pcw,male
330,5317STDY7723614,F1_MEP_E6,PLATE 2,femur MEP E6,X5317STDY7723614,20 pcw,male
331,5317STDY7723615,F1_MEP_E7,PLATE 2,femur MEP E7,X5317STDY7723615,20 pcw,male
332,5317STDY7723616,F1_MEP_E8,PLATE 2,femur MEP E8,X5317STDY7723616,20 pcw,male
333,5317STDY7723617,F1_MEP_E9,PLATE 2,femur MEP E9,X5317STDY7723617,20 pcw,male
334,5317STDY7723618,F1_MEP_E10,PLATE 2,femur MEP E10,X5317STDY7723618,20 pcw,male
335,5317STDY7723619,F1_MEP_E11,PLATE 2,femur MEP E11,X5317STDY7723619,20 pcw,male
336,5317STDY7723620,F1_MEP_E12,PLATE 2,femur MEP E12,X5317STDY7723620,20 pcw,male
337,5317STDY7723621,F1_MEP_F1,PLATE 2,femur MEP F1,X5317STDY7723621,20 pcw,male
338,5317STDY7723622,F1_MEP_F2,PLATE 2,femur MEP F2,X5317STDY7723622,20 pcw,male
339,5317STDY7723623,F1_MEP_F3,PLATE 2,femur MEP F3,X5317STDY7723623,20 pcw,male
340,5317STDY7723624,F1_MEP_F4,PLATE 2,femur MEP F4,X5317STDY7723624,20 pcw,male
341,5317STDY7723625,F1_MEP_F5,PLATE 2,femur MEP F5,X5317STDY7723625,20 pcw,male
342,5317STDY7723626,F1_MEP_F6,PLATE 2,femur MEP F6,X5317STDY7723626,20 pcw,male
343,5317STDY7723627,F1_MEP_F7,PLATE 2,femur MEP F7,X5317STDY7723627,20 pcw,male
344,5317STDY7723628,F1_MEP_F8,PLATE 2,femur MEP F8,X5317STDY7723628,20 pcw,male
345,5317STDY7723629,F1_MEP_F9,PLATE 2,femur MEP F9,X5317STDY7723629,20 pcw,male
346,5317STDY7723630,F1_MEP_F10,PLATE 2,femur MEP F10,X5317STDY7723630,20 pcw,male
347,5317STDY7723631,F1_MEP_F11,PLATE 2,femur MEP F11,X5317STDY7723631,20 pcw,male
348,5317STDY7723632,F1_MEP_F12,PLATE 2,femur MEP F12,X5317STDY7723632,20 pcw,male
349,5317STDY7723633,F1_GMP_G1,PLATE 2,femur GMP G1,X5317STDY7723633,20 pcw,male
350,5317STDY7723634,F1_GMP_G2,PLATE 2,femur GMP G2,X5317STDY7723634,20 pcw,male
351,5317STDY7723635,F1_GMP_G3,PLATE 2,femur GMP G3,X5317STDY7723635,20 pcw,male
352,5317STDY7723636,F1_GMP_G4,PLATE 2,femur GMP G4,X5317STDY7723636,20 pcw,male
353,5317STDY7723637,F1_GMP_G5,PLATE 2,femur GMP G5,X5317STDY7723637,20 pcw,male
354,5317STDY7723638,F1_GMP_G6,PLATE 2,femur GMP G6,X5317STDY7723638,20 pcw,male
355,5317STDY7723639,F1_GMP_G7,PLATE 2,femur GMP G7,X5317STDY7723639,20 pcw,male
356,5317STDY7723640,F1_GMP_G8,PLATE 2,femur GMP G8,X5317STDY7723640,20 pcw,male
357,5317STDY7723641,F1_GMP_G9,PLATE 2,femur GMP G9,X5317STDY7723641,20 pcw,male
358,5317STDY7723642,F1_GMP_G10,PLATE 2,femur GMP G10,X5317STDY7723642,20 pcw,male
359,5317STDY7723643,F1_GMP_G11,PLATE 2,femur GMP G11,X5317STDY7723643,20 pcw,male
360,5317STDY7723644,F1_GMP_G12,PLATE 2,femur GMP G12,X5317STDY7723644,20 pcw,male
361,5317STDY7723645,F1_GMP_H1,PLATE 2,femur GMP H1,X5317STDY7723645,20 pcw,male
362,5317STDY7723646,F1_GMP_H2,PLATE 2,femur GMP H2,X5317STDY7723646,20 pcw,male
363,5317STDY7723647,F1_GMP_H3,PLATE 2,femur GMP H3,X5317STDY7723647,20 pcw,male
364,5317STDY7723648,F1_GMP_H4,PLATE 2,femur GMP H4,X5317STDY7723648,20 pcw,male
365,5317STDY7723649,F1_GMP_H5,PLATE 2,femur GMP H5,X5317STDY7723649,20 pcw,male
366,5317STDY7723650,F1_GMP_H6,PLATE 2,femur GMP H6,X5317STDY7723650,20 pcw,male
367,5317STDY7723651,F1_GMP_H7,PLATE 2,femur GMP H7,X5317STDY7723651,20 pcw,male
368,5317STDY7723652,F1_GMP_H8,PLATE 2,femur GMP H8,X5317STDY7723652,20 pcw,male
369,5317STDY7723653,F1_GMP_H9,PLATE 2,femur GMP H9,X5317STDY7723653,20 pcw,male
370,5317STDY7723654,F1_GMP_H10,PLATE 2,femur GMP H10,X5317STDY7723654,20 pcw,male
371,5317STDY7723655,F2_CMP_A1,PLATE 5,femur CMP A1,X5317STDY7723655,20 pcw,male
372,5317STDY7723656,F2_CMP_A2,PLATE 5,femur CMP A2,X5317STDY7723656,20 pcw,male
373,5317STDY7723657,F2_CMP_A3,PLATE 5,femur CMP A3,X5317STDY7723657,20 pcw,male
374,5317STDY7723658,F2_CMP_A4,PLATE 5,femur CMP A4,X5317STDY7723658,20 pcw,male
375,5317STDY7723659,F2_CMP_A5,PLATE 5,femur CMP A5,X5317STDY7723659,20 pcw,male
376,5317STDY7723660,F2_CMP_A6,PLATE 5,femur CMP A6,X5317STDY7723660,20 pcw,male
377,5317STDY7723661,F2_CMP_A7,PLATE 5,femur CMP A7,X5317STDY7723661,20 pcw,male
378,5317STDY7723662,F2_CMP_A8,PLATE 5,femur CMP A8,X5317STDY7723662,20 pcw,male
379,5317STDY7723663,F2_CMP_A9,PLATE 5,femur CMP A9,X5317STDY7723663,20 pcw,male
380,5317STDY7723664,F2_CMP_A10,PLATE 5,femur CMP A10,X5317STDY7723664,20 pcw,male
381,5317STDY7723665,F2_CMP_A11,PLATE 5,femur CMP A11,X5317STDY7723665,20 pcw,male
382,5317STDY7723666,F2_CMP_A12,PLATE 5,femur CMP A12,X5317STDY7723666,20 pcw,male
383,5317STDY7723667,F2_CMP_B1,PLATE 5,femur CMP B1,X5317STDY7723667,20 pcw,male
384,5317STDY7723668,F2_CMP_B2,PLATE 5,femur CMP B2,X5317STDY7723668,20 pcw,male
385,5317STDY7723669,F2_CMP_B3,PLATE 5,femur CMP B3,X5317STDY7723669,20 pcw,male
386,5317STDY7723670,F2_CMP_B4,PLATE 5,femur CMP B4,X5317STDY7723670,20 pcw,male
387,5317STDY7723671,F2_CMP_B5,PLATE 5,femur CMP B5,X5317STDY7723671,20 pcw,male
388,5317STDY7723672,F2_CMP_B6,PLATE 5,femur CMP B6,X5317STDY7723672,20 pcw,male
389,5317STDY7723673,F2_CMP_B7,PLATE 5,femur CMP B7,X5317STDY7723673,20 pcw,male
390,5317STDY7723674,F2_CMP_B8,PLATE 5,femur CMP B8,X5317STDY7723674,20 pcw,male
391,5317STDY7723675,F2_CMP_B9,PLATE 5,femur CMP B9,X5317STDY7723675,20 pcw,male
392,5317STDY7723676,F2_CMP_B10,PLATE 5,femur CMP B10,X5317STDY7723676,20 pcw,male
393,5317STDY7723677,F2_CMP_B11,PLATE 5,femur CMP B11,X5317STDY7723677,20 pcw,male
394,5317STDY7723678,F2_CMP_B12,PLATE 5,femur CMP B12,X5317STDY7723678,20 pcw,male
395,5317STDY7723679,F2_CMP_C1,PLATE 5,femur CMP C1,X5317STDY7723679,20 pcw,male
396,5317STDY7723680,F2_CMP_C2,PLATE 5,femur CMP C2,X5317STDY7723680,20 pcw,male
397,5317STDY7723681,F2_CMP_C3,PLATE 5,femur CMP C3,X5317STDY7723681,20 pcw,male
398,5317STDY7723682,F2_CMP_C4,PLATE 5,femur CMP C4,X5317STDY7723682,20 pcw,male
399,5317STDY7723683,F2_CMP_C5,PLATE 5,femur CMP C5,X5317STDY7723683,20 pcw,male
400,5317STDY7723684,F2_CMP_C6,PLATE 5,femur CMP C6,X5317STDY7723684,20 pcw,male
401,5317STDY7723685,F2_CMP_C7,PLATE 5,femur CMP C7,X5317STDY7723685,20 pcw,male
402,5317STDY7723686,F2_CMP_C8,PLATE 5,femur CMP C8,X5317STDY7723686,20 pcw,male
403,5317STDY7723687,F2_CMP_C9,PLATE 5,femur CMP C9,X5317STDY7723687,20 pcw,male
404,5317STDY7723688,F2_CMP_C10,PLATE 5,femur CMP C10,X5317STDY7723688,20 pcw,male
405,5317STDY7723689,F2_CMP_C11,PLATE 5,femur CMP C11,X5317STDY7723689,20 pcw,male
406,5317STDY7723690,F2_CMP_C12,PLATE 5,femur CMP C12,X5317STDY7723690,20 pcw,male
407,5317STDY7723691,F2_MEP_D1,PLATE 5,femur MEP D1,X5317STDY7723691,20 pcw,male
408,5317STDY7723692,F2_MEP_D2,PLATE 5,femur MEP D2,X5317STDY7723692,20 pcw,male
409,5317STDY7723693,F2_MEP_D3,PLATE 5,femur MEP D3,X5317STDY7723693,20 pcw,male
410,5317STDY7723694,F2_MEP_D4,PLATE 5,femur MEP D4,X5317STDY7723694,20 pcw,male
411,5317STDY7723695,F2_MEP_D5,PLATE 5,femur MEP D5,X5317STDY7723695,20 pcw,male
412,5317STDY7723696,F2_MEP_D6,PLATE 5,femur MEP D6,X5317STDY7723696,20 pcw,male
413,5317STDY7723697,F2_MEP_D7,PLATE 5,femur MEP D7,X5317STDY7723697,20 pcw,male
414,5317STDY7723698,F2_MEP_D8,PLATE 5,femur MEP D8,X5317STDY7723698,20 pcw,male
415,5317STDY7723699,F2_MEP_D9,PLATE 5,femur MEP D9,X5317STDY7723699,20 pcw,male
416,5317STDY7723700,F2_MEP_D10,PLATE 5,femur MEP D10,X5317STDY7723700,20 pcw,male
417,5317STDY7723701,F2_MEP_D11,PLATE 5,femur MEP D11,X5317STDY7723701,20 pcw,male
418,5317STDY7723702,F2_MEP_D12,PLATE 5,femur MEP D12,X5317STDY7723702,20 pcw,male
419,5317STDY7723703,F2_MEP_E1,PLATE 5,femur MEP E1,X5317STDY7723703,20 pcw,male
420,5317STDY7723704,F2_MEP_E2,PLATE 5,femur MEP E2,X5317STDY7723704,20 pcw,male
421,5317STDY7723705,F2_MEP_E3,PLATE 5,femur MEP E3,X5317STDY7723705,20 pcw,male
422,5317STDY7723706,F2_MEP_E4,PLATE 5,femur MEP E4,X5317STDY7723706,20 pcw,male
423,5317STDY7723707,F2_MEP_E5,PLATE 5,femur MEP E5,X5317STDY7723707,20 pcw,male
424,5317STDY7723708,F2_MEP_E6,PLATE 5,femur MEP E6,X5317STDY7723708,20 pcw,male
425,5317STDY7723709,F2_MEP_E7,PLATE 5,femur MEP E7,X5317STDY7723709,20 pcw,male
426,5317STDY7723710,F2_MEP_E8,PLATE 5,femur MEP E8,X5317STDY7723710,20 pcw,male
427,5317STDY7723711,F2_MEP_E9,PLATE 5,femur MEP E9,X5317STDY7723711,20 pcw,male
428,5317STDY7723712,F2_MEP_E10,PLATE 5,femur MEP E10,X5317STDY7723712,20 pcw,male
429,5317STDY7723713,F2_MEP_E11,PLATE 5,femur MEP E11,X5317STDY7723713,20 pcw,male
430,5317STDY7723714,F2_MEP_E12,PLATE 5,femur MEP E12,X5317STDY7723714,20 pcw,male
431,5317STDY7723715,F2_MEP_F1,PLATE 5,femur MEP F1,X5317STDY7723715,20 pcw,male
432,5317STDY7723716,F2_MEP_F2,PLATE 5,femur MEP F2,X5317STDY7723716,20 pcw,male
433,5317STDY7723717,F2_MEP_F3,PLATE 5,femur MEP F3,X5317STDY7723717,20 pcw,male
434,5317STDY7723718,F2_MEP_F4,PLATE 5,femur MEP F4,X5317STDY7723718,20 pcw,male
435,5317STDY7723719,F2_MEP_F5,PLATE 5,femur MEP F5,X5317STDY7723719,20 pcw,male
436,5317STDY7723720,F2_MEP_F6,PLATE 5,femur MEP F6,X5317STDY7723720,20 pcw,male
437,5317STDY7723721,F2_MEP_F7,PLATE 5,femur MEP F7,X5317STDY7723721,20 pcw,male
438,5317STDY7723722,F2_MEP_F8,PLATE 5,femur MEP F8,X5317STDY7723722,20 pcw,male
439,5317STDY7723723,F2_MEP_F9,PLATE 5,femur MEP F9,X5317STDY7723723,20 pcw,male
440,5317STDY7723724,F2_MEP_F10,PLATE 5,femur MEP F10,X5317STDY7723724,20 pcw,male
441,5317STDY7723725,F2_MEP_F11,PLATE 5,femur MEP F11,X5317STDY7723725,20 pcw,male
442,5317STDY7723726,F2_MEP_F12,PLATE 5,femur MEP F12,X5317STDY7723726,20 pcw,male
443,5317STDY7723727,F2_GMP_G1,PLATE 5,femur GMP G1,X5317STDY7723727,20 pcw,male
444,5317STDY7723728,F2_GMP_G2,PLATE 5,femur GMP G2,X5317STDY7723728,20 pcw,male
445,5317STDY7723729,F2_GMP_G3,PLATE 5,femur GMP G3,X5317STDY7723729,20 pcw,male
446,5317STDY7723730,F2_GMP_G4,PLATE 5,femur GMP G4,X5317STDY7723730,20 pcw,male
447,5317STDY7723731,F2_GMP_G5,PLATE 5,femur GMP G5,X5317STDY7723731,20 pcw,male
448,5317STDY7723732,F2_GMP_G6,PLATE 5,femur GMP G6,X5317STDY7723732,20 pcw,male
449,5317STDY7723733,F2_GMP_G7,PLATE 5,femur GMP G7,X5317STDY7723733,20 pcw,male
450,5317STDY7723734,F2_GMP_G8,PLATE 5,femur GMP G8,X5317STDY7723734,20 pcw,male
451,5317STDY7723735,F2_GMP_G9,PLATE 5,femur GMP G9,X5317STDY7723735,20 pcw,male
452,5317STDY7723736,F2_GMP_G10,PLATE 5,femur GMP G10,X5317STDY7723736,20 pcw,male
453,5317STDY7723737,F2_GMP_G11,PLATE 5,femur GMP G11,X5317STDY7723737,20 pcw,male
454,5317STDY7723738,F2_GMP_G12,PLATE 5,femur GMP G12,X5317STDY7723738,20 pcw,male
455,5317STDY7723739,F2_GMP_H1,PLATE 5,femur GMP H1,X5317STDY7723739,20 pcw,male
456,5317STDY7723740,F2_GMP_H2,PLATE 5,femur GMP H2,X5317STDY7723740,20 pcw,male
457,5317STDY7723741,F2_GMP_H3,PLATE 5,femur GMP H3,X5317STDY7723741,20 pcw,male
458,5317STDY7723742,F2_GMP_H4,PLATE 5,femur GMP H4,X5317STDY7723742,20 pcw,male
459,5317STDY7723743,F2_GMP_H5,PLATE 5,femur GMP H5,X5317STDY7723743,20 pcw,male
460,5317STDY7723744,F2_GMP_H6,PLATE 5,femur GMP H6,X5317STDY7723744,20 pcw,male
461,5317STDY7723745,F2_GMP_H7,PLATE 5,femur GMP H7,X5317STDY7723745,20 pcw,male
462,5317STDY7723746,F2_GMP_H8,PLATE 5,femur GMP H8,X5317STDY7723746,20 pcw,male
463,5317STDY7723747,F2_GMP_H9,PLATE 5,femur GMP H9,X5317STDY7723747,20 pcw,male
464,5317STDY7723748,F2_GMP_H10,PLATE 5,femur GMP H10,X5317STDY7723748,20 pcw,male
465,5317STDY7723749,L_CMP_A1,PLATE 7,liver CMP A1,X5317STDY7723749,20 pcw,male
466,5317STDY7723750,L_CMP_A2,PLATE 7,liver CMP A2,X5317STDY7723750,20 pcw,male
467,5317STDY7723751,L_CMP_A3,PLATE 7,liver CMP A3,X5317STDY7723751,20 pcw,male
468,5317STDY7723752,L_CMP_A4,PLATE 7,liver CMP A4,X5317STDY7723752,20 pcw,male
469,5317STDY7723753,L_CMP_A5,PLATE 7,liver CMP A5,X5317STDY7723753,20 pcw,male
470,5317STDY7723754,L_CMP_A6,PLATE 7,liver CMP A6,X5317STDY7723754,20 pcw,male
471,5317STDY7723755,L_CMP_A7,PLATE 7,liver CMP A7,X5317STDY7723755,20 pcw,male
472,5317STDY7723756,L_CMP_A8,PLATE 7,liver CMP A8,X5317STDY7723756,20 pcw,male
473,5317STDY7723757,L_CMP_A9,PLATE 7,liver CMP A9,X5317STDY7723757,20 pcw,male
474,5317STDY7723758,L_CMP_A10,PLATE 7,liver CMP A10,X5317STDY7723758,20 pcw,male
475,5317STDY7723759,L_CMP_A11,PLATE 7,liver CMP A11,X5317STDY7723759,20 pcw,male
476,5317STDY7723760,L_CMP_A12,PLATE 7,liver CMP A12,X5317STDY7723760,20 pcw,male
477,5317STDY7723761,L_CMP_B1,PLATE 7,liver CMP B1,X5317STDY7723761,20 pcw,male
478,5317STDY7723762,L_CMP_B2,PLATE 7,liver CMP B2,X5317STDY7723762,20 pcw,male
479,5317STDY7723763,L_CMP_B3,PLATE 7,liver CMP B3,X5317STDY7723763,20 pcw,male
480,5317STDY7723764,L_CMP_B4,PLATE 7,liver CMP B4,X5317STDY7723764,20 pcw,male
481,5317STDY7723765,L_CMP_B5,PLATE 7,liver CMP B5,X5317STDY7723765,20 pcw,male
482,5317STDY7723766,L_CMP_B6,PLATE 7,liver CMP B6,X5317STDY7723766,20 pcw,male
483,5317STDY7723767,L_CMP_B7,PLATE 7,liver CMP B7,X5317STDY7723767,20 pcw,male
484,5317STDY7723768,L_CMP_B8,PLATE 7,liver CMP B8,X5317STDY7723768,20 pcw,male
485,5317STDY7723769,L_CMP_B9,PLATE 7,liver CMP B9,X5317STDY7723769,20 pcw,male
486,5317STDY7723770,L_CMP_B10,PLATE 7,liver CMP B10,X5317STDY7723770,20 pcw,male
487,5317STDY7723771,L_CMP_B11,PLATE 7,liver CMP B11,X5317STDY7723771,20 pcw,male
488,5317STDY7723772,L_CMP_B12,PLATE 7,liver CMP B12,X5317STDY7723772,20 pcw,male
489,5317STDY7723773,L_CMP_C1,PLATE 7,liver CMP C1,X5317STDY7723773,20 pcw,male
490,5317STDY7723774,L_CMP_C2,PLATE 7,liver CMP C2,X5317STDY7723774,20 pcw,male
491,5317STDY7723775,L_CMP_C3,PLATE 7,liver CMP C3,X5317STDY7723775,20 pcw,male
492,5317STDY7723776,L_CMP_C4,PLATE 7,liver CMP C4,X5317STDY7723776,20 pcw,male
493,5317STDY7723777,L_CMP_C5,PLATE 7,liver CMP C5,X5317STDY7723777,20 pcw,male
494,5317STDY7723778,L_CMP_C6,PLATE 7,liver CMP C6,X5317STDY7723778,20 pcw,male
495,5317STDY7723779,L_CMP_C7,PLATE 7,liver CMP C7,X5317STDY7723779,20 pcw,male
496,5317STDY7723780,L_CMP_C8,PLATE 7,liver CMP C8,X5317STDY7723780,20 pcw,male
497,5317STDY7723781,L_CMP_C9,PLATE 7,liver CMP C9,X5317STDY7723781,20 pcw,male
498,5317STDY7723782,L_CMP_C10,PLATE 7,liver CMP C10,X5317STDY7723782,20 pcw,male
499,5317STDY7723783,L_CMP_C11,PLATE 7,liver CMP C11,X5317STDY7723783,20 pcw,male
500,5317STDY7723784,L_CMP_C12,PLATE 7,liver CMP C12,X5317STDY7723784,20 pcw,male
501,5317STDY7723785,L_MEP_D1,PLATE 7,liver MEP D1,X5317STDY7723785,20 pcw,male
502,5317STDY7723786,L_MEP_D2,PLATE 7,liver MEP D2,X5317STDY7723786,20 pcw,male
503,5317STDY7723787,L_MEP_D3,PLATE 7,liver MEP D3,X5317STDY7723787,20 pcw,male
504,5317STDY7723788,L_MEP_D4,PLATE 7,liver MEP D4,X5317STDY7723788,20 pcw,male
505,5317STDY7723789,L_MEP_D5,PLATE 7,liver MEP D5,X5317STDY7723789,20 pcw,male
506,5317STDY7723790,L_MEP_D6,PLATE 7,liver MEP D6,X5317STDY7723790,20 pcw,male
507,5317STDY7723791,L_MEP_D7,PLATE 7,liver MEP D7,X5317STDY7723791,20 pcw,male
508,5317STDY7723792,L_MEP_D8,PLATE 7,liver MEP D8,X5317STDY7723792,20 pcw,male
509,5317STDY7723793,L_MEP_D9,PLATE 7,liver MEP D9,X5317STDY7723793,20 pcw,male
510,5317STDY7723794,L_MEP_D10,PLATE 7,liver MEP D10,X5317STDY7723794,20 pcw,male
511,5317STDY7723795,L_MEP_D11,PLATE 7,liver MEP D11,X5317STDY7723795,20 pcw,male
512,5317STDY7723796,L_MEP_D12,PLATE 7,liver MEP D12,X5317STDY7723796,20 pcw,male
513,5317STDY7723797,L_MEP_E1,PLATE 7,liver MEP E1,X5317STDY7723797,20 pcw,male
514,5317STDY7723798,L_MEP_E2,PLATE 7,liver MEP E2,X5317STDY7723798,20 pcw,male
515,5317STDY7723799,L_MEP_E3,PLATE 7,liver MEP E3,X5317STDY7723799,20 pcw,male
516,5317STDY7723800,L_MEP_E4,PLATE 7,liver MEP E4,X5317STDY7723800,20 pcw,male
517,5317STDY7723801,L_MEP_E5,PLATE 7,liver MEP E5,X5317STDY7723801,20 pcw,male
518,5317STDY7723802,L_MEP_E6,PLATE 7,liver MEP E6,X5317STDY7723802,20 pcw,male
519,5317STDY7723803,L_MEP_E7,PLATE 7,liver MEP E7,X5317STDY7723803,20 pcw,male
520,5317STDY7723804,L_MEP_E8,PLATE 7,liver MEP E8,X5317STDY7723804,20 pcw,male
521,5317STDY7723805,L_MEP_E9,PLATE 7,liver MEP E9,X5317STDY7723805,20 pcw,male
522,5317STDY7723806,L_MEP_E10,PLATE 7,liver MEP E10,X5317STDY7723806,20 pcw,male
523,5317STDY7723807,L_MEP_E11,PLATE 7,liver MEP E11,X5317STDY7723807,20 pcw,male
524,5317STDY7723808,L_MEP_E12,PLATE 7,liver MEP E12,X5317STDY7723808,20 pcw,male
525,5317STDY7723809,L_MEP_F1,PLATE 7,liver MEP F1,X5317STDY7723809,20 pcw,male
526,5317STDY7723810,L_MEP_F2,PLATE 7,liver MEP F2,X5317STDY7723810,20 pcw,male
527,5317STDY7723811,L_MEP_F3,PLATE 7,liver MEP F3,X5317STDY7723811,20 pcw,male
528,5317STDY7723812,L_MEP_F4,PLATE 7,liver MEP F4,X5317STDY7723812,20 pcw,male
529,5317STDY7723813,L_MEP_F5,PLATE 7,liver MEP F5,X5317STDY7723813,20 pcw,male
530,5317STDY7723814,L_MEP_F6,PLATE 7,liver MEP F6,X5317STDY7723814,20 pcw,male
531,5317STDY7723815,L_MEP_F7,PLATE 7,liver MEP F7,X5317STDY7723815,20 pcw,male
532,5317STDY7723816,L_MEP_F8,PLATE 7,liver MEP F8,X5317STDY7723816,20 pcw,male
533,5317STDY7723817,L_MEP_F9,PLATE 7,liver MEP F9,X5317STDY7723817,20 pcw,male
534,5317STDY7723818,L_MEP_F10,PLATE 7,liver MEP F10,X5317STDY7723818,20 pcw,male
535,5317STDY7723819,L_MEP_F11,PLATE 7,liver MEP F11,X5317STDY7723819,20 pcw,male
536,5317STDY7723820,L_MEP_F12,PLATE 7,liver MEP F12,X5317STDY7723820,20 pcw,male
537,5317STDY7723821,L_GMP_G1,PLATE 7,liver GMP G1,X5317STDY7723821,20 pcw,male
538,5317STDY7723822,L_GMP_G2,PLATE 7,liver GMP G2,X5317STDY7723822,20 pcw,male
539,5317STDY7723823,L_GMP_G3,PLATE 7,liver GMP G3,X5317STDY7723823,20 pcw,male
540,5317STDY7723824,L_GMP_G4,PLATE 7,liver GMP G4,X5317STDY7723824,20 pcw,male
541,5317STDY7723825,L_GMP_G5,PLATE 7,liver GMP G5,X5317STDY7723825,20 pcw,male
542,5317STDY7723826,L_GMP_G6,PLATE 7,liver GMP G6,X5317STDY7723826,20 pcw,male
543,5317STDY7723827,L_GMP_G7,PLATE 7,liver GMP G7,X5317STDY7723827,20 pcw,male
544,5317STDY7723828,L_GMP_G8,PLATE 7,liver GMP G8,X5317STDY7723828,20 pcw,male
545,5317STDY7723829,L_GMP_G9,PLATE 7,liver GMP G9,X5317STDY7723829,20 pcw,male
546,5317STDY7723830,L_GMP_G10,PLATE 7,liver GMP G10,X5317STDY7723830,20 pcw,male
547,5317STDY7723831,L_GMP_G11,PLATE 7,liver GMP G11,X5317STDY7723831,20 pcw,male
548,5317STDY7723832,L_GMP_G12,PLATE 7,liver GMP G12,X5317STDY7723832,20 pcw,male
549,5317STDY7723833,L_GMP_H1,PLATE 7,liver GMP H1,X5317STDY7723833,20 pcw,male
550,5317STDY7723834,L_GMP_H2,PLATE 7,liver GMP H2,X5317STDY7723834,20 pcw,male
551,5317STDY7723835,L_GMP_H3,PLATE 7,liver GMP H3,X5317STDY7723835,20 pcw,male
552,5317STDY7723836,L_GMP_H4,PLATE 7,liver GMP H4,X5317STDY7723836,20 pcw,male
553,5317STDY7723837,L_GMP_H5,PLATE 7,liver GMP H5,X5317STDY7723837,20 pcw,male
554,5317STDY7723838,L_GMP_H6,PLATE 7,liver GMP H6,X5317STDY7723838,20 pcw,male
555,5317STDY7723839,L_GMP_H7,PLATE 7,liver GMP H7,X5317STDY7723839,20 pcw,male
556,5317STDY7723840,L_GMP_H8,PLATE 7,liver GMP H8,X5317STDY7723840,20 pcw,male
557,5317STDY7723841,L_GMP_H9,PLATE 7,liver GMP H9,X5317STDY7723841,20 pcw,male
558,5317STDY7723842,L_GMP_H10,PLATE 7,liver GMP H10,X5317STDY7723842,20 pcw,male
559,5317STDY7723843,,,,X5317STDY7723843,,
560,5317STDY7723844,,,,X5317STDY7723844,,
561,5317STDY7723845,,,,X5317STDY7723845,,
562,5317STDY7723846,,,,X5317STDY7723846,,
563,5317STDY7723847,,,,X5317STDY7723847,,
564,5317STDY7723848,,,,X5317STDY7723848,,