Data Source,femur full RNA plate 5_001
,,,,,FSC,SSC,*530/30 (488),*585/29 (561),*750LP (561),*720/40 (640),*425/26 (405),*780/60 (640)
Well,Population,Events,% Total,% Parent,Median,Median,Median,Median,Median,Median,Median,Median
A1,All Events,1,100.00%,NaN,42934,21716,198,286,107,4,66,1826
A1,Cells,1,100.00%,100.00%,42934,21716,198,286,107,4,66,1826
A1,Singles,1,100.00%,100.00%,42934,21716,198,286,107,4,66,1826
A1,lineage neg,1,100.00%,100.00%,42934,21716,198,286,107,4,66,1826
A1,CD34+CD38-,1,100.00%,100.00%,42934,21716,198,286,107,4,66,1826
A1,CD52+CD62L+,1,100.00%,100.00%,42934,21716,198,286,107,4,66,1826
A1,CD133+,1,100.00%,100.00%,42934,21716,198,286,107,4,66,1826
A2,All Events,1,100.00%,NaN,39420,13375,186,178,26,1,328,1045
A2,Cells,1,100.00%,100.00%,39420,13375,186,178,26,1,328,1045
A2,Singles,1,100.00%,100.00%,39420,13375,186,178,26,1,328,1045
A2,lineage neg,1,100.00%,100.00%,39420,13375,186,178,26,1,328,1045
A2,CD34+CD38-,1,100.00%,100.00%,39420,13375,186,178,26,1,328,1045
A2,CD52+CD62L+,1,100.00%,100.00%,39420,13375,186,178,26,1,328,1045
A2,CD133+,1,100.00%,100.00%,39420,13375,186,178,26,1,328,1045
A3,All Events,1,100.00%,NaN,34493,17673,331,394,14,1,113,2416
A3,Cells,1,100.00%,100.00%,34493,17673,331,394,14,1,113,2416
A3,Singles,1,100.00%,100.00%,34493,17673,331,394,14,1,113,2416
A3,lineage neg,1,100.00%,100.00%,34493,17673,331,394,14,1,113,2416
A3,CD34+CD38-,1,100.00%,100.00%,34493,17673,331,394,14,1,113,2416
A3,CD52+CD62L+,1,100.00%,100.00%,34493,17673,331,394,14,1,113,2416
A3,CD133+,1,100.00%,100.00%,34493,17673,331,394,14,1,113,2416
A4,All Events,1,100.00%,NaN,28363,16086,123,192,53,13,441,520
A4,Cells,1,100.00%,100.00%,28363,16086,123,192,53,13,441,520
A4,Singles,1,100.00%,100.00%,28363,16086,123,192,53,13,441,520
A4,lineage neg,1,100.00%,100.00%,28363,16086,123,192,53,13,441,520
A4,CD34+CD38-,1,100.00%,100.00%,28363,16086,123,192,53,13,441,520
A4,CD52+CD62L+,1,100.00%,100.00%,28363,16086,123,192,53,13,441,520
A4,CD133+,1,100.00%,100.00%,28363,16086,123,192,53,13,441,520
A5,All Events,1,100.00%,NaN,38148,11748,178,126,26,14,125,1987
A5,Cells,1,100.00%,100.00%,38148,11748,178,126,26,14,125,1987
A5,Singles,1,100.00%,100.00%,38148,11748,178,126,26,14,125,1987
A5,lineage neg,1,100.00%,100.00%,38148,11748,178,126,26,14,125,1987
A5,CD34+CD38-,1,100.00%,100.00%,38148,11748,178,126,26,14,125,1987
A5,CD52+CD62L+,1,100.00%,100.00%,38148,11748,178,126,26,14,125,1987
A5,CD133+,1,100.00%,100.00%,38148,11748,178,126,26,14,125,1987
A6,All Events,1,100.00%,NaN,39974,14295,345,608,83,1,259,2041
A6,Cells,1,100.00%,100.00%,39974,14295,345,608,83,1,259,2041
A6,Singles,1,100.00%,100.00%,39974,14295,345,608,83,1,259,2041
A6,lineage neg,1,100.00%,100.00%,39974,14295,345,608,83,1,259,2041
A6,CD34+CD38-,1,100.00%,100.00%,39974,14295,345,608,83,1,259,2041
A6,CD52+CD62L+,1,100.00%,100.00%,39974,14295,345,608,83,1,259,2041
A6,CD133+,1,100.00%,100.00%,39974,14295,345,608,83,1,259,2041
A7,All Events,1,100.00%,NaN,31329,18279,230,159,68,11,284,932
A7,Cells,1,100.00%,100.00%,31329,18279,230,159,68,11,284,932
A7,Singles,1,100.00%,100.00%,31329,18279,230,159,68,11,284,932
A7,lineage neg,1,100.00%,100.00%,31329,18279,230,159,68,11,284,932
A7,CD34+CD38-,1,100.00%,100.00%,31329,18279,230,159,68,11,284,932
A7,CD52+CD62L+,1,100.00%,100.00%,31329,18279,230,159,68,11,284,932
A7,CD133+,1,100.00%,100.00%,31329,18279,230,159,68,11,284,932
A8,All Events,1,100.00%,NaN,41080,16308,314,380,46,1,403,2197
A8,Cells,1,100.00%,100.00%,41080,16308,314,380,46,1,403,2197
A8,Singles,1,100.00%,100.00%,41080,16308,314,380,46,1,403,2197
A8,lineage neg,1,100.00%,100.00%,41080,16308,314,380,46,1,403,2197
A8,CD34+CD38-,1,100.00%,100.00%,41080,16308,314,380,46,1,403,2197
A8,CD52+CD62L+,1,100.00%,100.00%,41080,16308,314,380,46,1,403,2197
A8,CD133+,1,100.00%,100.00%,41080,16308,314,380,46,1,403,2197
A9,All Events,10,100.00%,NaN,35264,15190,246,160,52,4,157,1404
A9,Cells,10,100.00%,100.00%,35264,15190,246,160,52,4,157,1404
A9,Singles,10,100.00%,100.00%,35264,15190,246,160,52,4,157,1404
A9,lineage neg,10,100.00%,100.00%,35264,15190,246,160,52,4,157,1404
A9,CD34+CD38-,10,100.00%,100.00%,35264,15190,246,160,52,4,157,1404
A9,CD52+CD62L+,10,100.00%,100.00%,35264,15190,246,160,52,4,157,1404
A9,CD133+,10,100.00%,100.00%,35264,15190,246,160,52,4,157,1404
A10,All Events,10,100.00%,NaN,36661,15335,433,339,51,10,155,2388
A10,Cells,10,100.00%,100.00%,36661,15335,433,339,51,10,155,2388
A10,Singles,10,100.00%,100.00%,36661,15335,433,339,51,10,155,2388
A10,lineage neg,10,100.00%,100.00%,36661,15335,433,339,51,10,155,2388
A10,CD34+CD38-,10,100.00%,100.00%,36661,15335,433,339,51,10,155,2388
A10,CD52+CD62L+,10,100.00%,100.00%,36661,15335,433,339,51,10,155,2388
A10,CD133+,10,100.00%,100.00%,36661,15335,433,339,51,10,155,2388
A11,All Events,1,100.00%,NaN,36487,14473,110,71,45,1,316,662
A11,Cells,1,100.00%,100.00%,36487,14473,110,71,45,1,316,662
A11,Singles,1,100.00%,100.00%,36487,14473,110,71,45,1,316,662
A11,lineage neg,1,100.00%,100.00%,36487,14473,110,71,45,1,316,662
A11,CD34+CD38-,1,100.00%,100.00%,36487,14473,110,71,45,1,316,662
A11,CD52+CD62L+,1,100.00%,100.00%,36487,14473,110,71,45,1,316,662
A11,CD133+,1,100.00%,100.00%,36487,14473,110,71,45,1,316,662
A12,All Events,1,100.00%,NaN,41484,17871,669,528,61,13,60,2436
A12,Cells,1,100.00%,100.00%,41484,17871,669,528,61,13,60,2436
A12,Singles,1,100.00%,100.00%,41484,17871,669,528,61,13,60,2436
A12,lineage neg,1,100.00%,100.00%,41484,17871,669,528,61,13,60,2436
A12,CD34+CD38-,1,100.00%,100.00%,41484,17871,669,528,61,13,60,2436
A12,CD52+CD62L+,1,100.00%,100.00%,41484,17871,669,528,61,13,60,2436
A12,CD133+,1,100.00%,100.00%,41484,17871,669,528,61,13,60,2436
B1,All Events,1,100.00%,NaN,39656,21117,142,34,92,6,130,489
B1,Cells,1,100.00%,100.00%,39656,21117,142,34,92,6,130,489
B1,Singles,1,100.00%,100.00%,39656,21117,142,34,92,6,130,489
B1,lineage neg,1,100.00%,100.00%,39656,21117,142,34,92,6,130,489
B1,CD34+CD38-,1,100.00%,100.00%,39656,21117,142,34,92,6,130,489
B1,CD52+CD62L+,1,100.00%,100.00%,39656,21117,142,34,92,6,130,489
B1,CD133+,1,100.00%,100.00%,39656,21117,142,34,92,6,130,489
B2,All Events,1,100.00%,NaN,41110,15888,138,201,105,5,78,1245
B2,Cells,1,100.00%,100.00%,41110,15888,138,201,105,5,78,1245
B2,Singles,1,100.00%,100.00%,41110,15888,138,201,105,5,78,1245
B2,lineage neg,1,100.00%,100.00%,41110,15888,138,201,105,5,78,1245
B2,CD34+CD38-,1,100.00%,100.00%,41110,15888,138,201,105,5,78,1245
B2,CD52+CD62L+,1,100.00%,100.00%,41110,15888,138,201,105,5,78,1245
B2,CD133+,1,100.00%,100.00%,41110,15888,138,201,105,5,78,1245
B3,All Events,1,100.00%,NaN,35761,12212,212,265,75,1,387,952
B3,Cells,1,100.00%,100.00%,35761,12212,212,265,75,1,387,952
B3,Singles,1,100.00%,100.00%,35761,12212,212,265,75,1,387,952
B3,lineage neg,1,100.00%,100.00%,35761,12212,212,265,75,1,387,952
B3,CD34+CD38-,1,100.00%,100.00%,35761,12212,212,265,75,1,387,952
B3,CD52+CD62L+,1,100.00%,100.00%,35761,12212,212,265,75,1,387,952
B3,CD133+,1,100.00%,100.00%,35761,12212,212,265,75,1,387,952
B4,All Events,1,100.00%,NaN,31199,15602,464,341,85,13,1318,1967
B4,Cells,1,100.00%,100.00%,31199,15602,464,341,85,13,1318,1967
B4,Singles,1,100.00%,100.00%,31199,15602,464,341,85,13,1318,1967
B4,lineage neg,1,100.00%,100.00%,31199,15602,464,341,85,13,1318,1967
B4,CD34+CD38-,1,100.00%,100.00%,31199,15602,464,341,85,13,1318,1967
B4,CD52+CD62L+,1,100.00%,100.00%,31199,15602,464,341,85,13,1318,1967
B4,CD133+,1,100.00%,100.00%,31199,15602,464,341,85,13,1318,1967
B5,All Events,1,100.00%,NaN,38176,13198,239,140,69,1,103,1391
B5,Cells,1,100.00%,100.00%,38176,13198,239,140,69,1,103,1391
B5,Singles,1,100.00%,100.00%,38176,13198,239,140,69,1,103,1391
B5,lineage neg,1,100.00%,100.00%,38176,13198,239,140,69,1,103,1391
B5,CD34+CD38-,1,100.00%,100.00%,38176,13198,239,140,69,1,103,1391
B5,CD52+CD62L+,1,100.00%,100.00%,38176,13198,239,140,69,1,103,1391
B5,CD133+,1,100.00%,100.00%,38176,13198,239,140,69,1,103,1391
B6,All Events,1,100.00%,NaN,35665,12579,309,500,85,1,90,3427
B6,Cells,1,100.00%,100.00%,35665,12579,309,500,85,1,90,3427
B6,Singles,1,100.00%,100.00%,35665,12579,309,500,85,1,90,3427
B6,lineage neg,1,100.00%,100.00%,35665,12579,309,500,85,1,90,3427
B6,CD34+CD38-,1,100.00%,100.00%,35665,12579,309,500,85,1,90,3427
B6,CD52+CD62L+,1,100.00%,100.00%,35665,12579,309,500,85,1,90,3427
B6,CD133+,1,100.00%,100.00%,35665,12579,309,500,85,1,90,3427
B7,All Events,1,100.00%,NaN,33144,18559,358,528,17,1,162,3075
B7,Cells,1,100.00%,100.00%,33144,18559,358,528,17,1,162,3075
B7,Singles,1,100.00%,100.00%,33144,18559,358,528,17,1,162,3075
B7,lineage neg,1,100.00%,100.00%,33144,18559,358,528,17,1,162,3075
B7,CD34+CD38-,1,100.00%,100.00%,33144,18559,358,528,17,1,162,3075
B7,CD52+CD62L+,1,100.00%,100.00%,33144,18559,358,528,17,1,162,3075
B7,CD133+,1,100.00%,100.00%,33144,18559,358,528,17,1,162,3075
B8,All Events,1,100.00%,NaN,32809,14183,365,159,32,12,124,1294
B8,Cells,1,100.00%,100.00%,32809,14183,365,159,32,12,124,1294
B8,Singles,1,100.00%,100.00%,32809,14183,365,159,32,12,124,1294
B8,lineage neg,1,100.00%,100.00%,32809,14183,365,159,32,12,124,1294
B8,CD34+CD38-,1,100.00%,100.00%,32809,14183,365,159,32,12,124,1294
B8,CD52+CD62L+,1,100.00%,100.00%,32809,14183,365,159,32,12,124,1294
B8,CD133+,1,100.00%,100.00%,32809,14183,365,159,32,12,124,1294
B9,All Events,1,100.00%,NaN,38640,15483,263,388,21,1,54,2451
B9,Cells,1,100.00%,100.00%,38640,15483,263,388,21,1,54,2451
B9,Singles,1,100.00%,100.00%,38640,15483,263,388,21,1,54,2451
B9,lineage neg,1,100.00%,100.00%,38640,15483,263,388,21,1,54,2451
B9,CD34+CD38-,1,100.00%,100.00%,38640,15483,263,388,21,1,54,2451
B9,CD52+CD62L+,1,100.00%,100.00%,38640,15483,263,388,21,1,54,2451
B9,CD133+,1,100.00%,100.00%,38640,15483,263,388,21,1,54,2451
B10,All Events,1,100.00%,NaN,36652,15901,128,91,15,6,319,1455
B10,Cells,1,100.00%,100.00%,36652,15901,128,91,15,6,319,1455
B10,Singles,1,100.00%,100.00%,36652,15901,128,91,15,6,319,1455
B10,lineage neg,1,100.00%,100.00%,36652,15901,128,91,15,6,319,1455
B10,CD34+CD38-,1,100.00%,100.00%,36652,15901,128,91,15,6,319,1455
B10,CD52+CD62L+,1,100.00%,100.00%,36652,15901,128,91,15,6,319,1455
B10,CD133+,1,100.00%,100.00%,36652,15901,128,91,15,6,319,1455
B11,All Events,1,100.00%,NaN,37275,14350,222,33,104,1,81,1201
B11,Cells,1,100.00%,100.00%,37275,14350,222,33,104,1,81,1201
B11,Singles,1,100.00%,100.00%,37275,14350,222,33,104,1,81,1201
B11,lineage neg,1,100.00%,100.00%,37275,14350,222,33,104,1,81,1201
B11,CD34+CD38-,1,100.00%,100.00%,37275,14350,222,33,104,1,81,1201
B11,CD52+CD62L+,1,100.00%,100.00%,37275,14350,222,33,104,1,81,1201
B11,CD133+,1,100.00%,100.00%,37275,14350,222,33,104,1,81,1201
B12,All Events,1,100.00%,NaN,27155,14241,220,444,98,1,740,1255
B12,Cells,1,100.00%,100.00%,27155,14241,220,444,98,1,740,1255
B12,Singles,1,100.00%,100.00%,27155,14241,220,444,98,1,740,1255
B12,lineage neg,1,100.00%,100.00%,27155,14241,220,444,98,1,740,1255
B12,CD34+CD38-,1,100.00%,100.00%,27155,14241,220,444,98,1,740,1255
B12,CD52+CD62L+,1,100.00%,100.00%,27155,14241,220,444,98,1,740,1255
B12,CD133+,1,100.00%,100.00%,27155,14241,220,444,98,1,740,1255
C1,All Events,1,100.00%,NaN,35913,15936,316,259,23,1,56,2373
C1,Cells,1,100.00%,100.00%,35913,15936,316,259,23,1,56,2373
C1,Singles,1,100.00%,100.00%,35913,15936,316,259,23,1,56,2373
C1,lineage neg,1,100.00%,100.00%,35913,15936,316,259,23,1,56,2373
C1,CD34+CD38-,1,100.00%,100.00%,35913,15936,316,259,23,1,56,2373
C1,CD52+CD62L+,1,100.00%,100.00%,35913,15936,316,259,23,1,56,2373
C1,CD133+,1,100.00%,100.00%,35913,15936,316,259,23,1,56,2373
C2,All Events,1,100.00%,NaN,35362,18378,366,400,31,13,339,2636
C2,Cells,1,100.00%,100.00%,35362,18378,366,400,31,13,339,2636
C2,Singles,1,100.00%,100.00%,35362,18378,366,400,31,13,339,2636
C2,lineage neg,1,100.00%,100.00%,35362,18378,366,400,31,13,339,2636
C2,CD34+CD38-,1,100.00%,100.00%,35362,18378,366,400,31,13,339,2636
C2,CD52+CD62L+,1,100.00%,100.00%,35362,18378,366,400,31,13,339,2636
C2,CD133+,1,100.00%,100.00%,35362,18378,366,400,31,13,339,2636
C3,All Events,1,100.00%,NaN,37594,14456,630,327,105,1,162,3075
C3,Cells,1,100.00%,100.00%,37594,14456,630,327,105,1,162,3075
C3,Singles,1,100.00%,100.00%,37594,14456,630,327,105,1,162,3075
C3,lineage neg,1,100.00%,100.00%,37594,14456,630,327,105,1,162,3075
C3,CD34+CD38-,1,100.00%,100.00%,37594,14456,630,327,105,1,162,3075
C3,CD52+CD62L+,1,100.00%,100.00%,37594,14456,630,327,105,1,162,3075
C3,CD133+,1,100.00%,100.00%,37594,14456,630,327,105,1,162,3075
C4,All Events,1,100.00%,NaN,37155,19032,155,38,90,13,80,835
C4,Cells,1,100.00%,100.00%,37155,19032,155,38,90,13,80,835
C4,Singles,1,100.00%,100.00%,37155,19032,155,38,90,13,80,835
C4,lineage neg,1,100.00%,100.00%,37155,19032,155,38,90,13,80,835
C4,CD34+CD38-,1,100.00%,100.00%,37155,19032,155,38,90,13,80,835
C4,CD52+CD62L+,1,100.00%,100.00%,37155,19032,155,38,90,13,80,835
C4,CD133+,1,100.00%,100.00%,37155,19032,155,38,90,13,80,835
C5,All Events,1,100.00%,NaN,33761,13127,212,98,54,1,73,671
C5,Cells,1,100.00%,100.00%,33761,13127,212,98,54,1,73,671
C5,Singles,1,100.00%,100.00%,33761,13127,212,98,54,1,73,671
C5,lineage neg,1,100.00%,100.00%,33761,13127,212,98,54,1,73,671
C5,CD34+CD38-,1,100.00%,100.00%,33761,13127,212,98,54,1,73,671
C5,CD52+CD62L+,1,100.00%,100.00%,33761,13127,212,98,54,1,73,671
C5,CD133+,1,100.00%,100.00%,33761,13127,212,98,54,1,73,671
C6,All Events,1,100.00%,NaN,36019,16069,538,372,60,16,278,3388
C6,Cells,1,100.00%,100.00%,36019,16069,538,372,60,16,278,3388
C6,Singles,1,100.00%,100.00%,36019,16069,538,372,60,16,278,3388
C6,lineage neg,1,100.00%,100.00%,36019,16069,538,372,60,16,278,3388
C6,CD34+CD38-,1,100.00%,100.00%,36019,16069,538,372,60,16,278,3388
C6,CD52+CD62L+,1,100.00%,100.00%,36019,16069,538,372,60,16,278,3388
C6,CD133+,1,100.00%,100.00%,36019,16069,538,372,60,16,278,3388
C7,All Events,1,100.00%,NaN,33231,13601,343,502,105,1,61,2841
C7,Cells,1,100.00%,100.00%,33231,13601,343,502,105,1,61,2841
C7,Singles,1,100.00%,100.00%,33231,13601,343,502,105,1,61,2841
C7,lineage neg,1,100.00%,100.00%,33231,13601,343,502,105,1,61,2841
C7,CD34+CD38-,1,100.00%,100.00%,33231,13601,343,502,105,1,61,2841
C7,CD52+CD62L+,1,100.00%,100.00%,33231,13601,343,502,105,1,61,2841
C7,CD133+,1,100.00%,100.00%,33231,13601,343,502,105,1,61,2841
C8,All Events,1,100.00%,NaN,35381,14449,182,246,103,8,344,1816
C8,Cells,1,100.00%,100.00%,35381,14449,182,246,103,8,344,1816
C8,Singles,1,100.00%,100.00%,35381,14449,182,246,103,8,344,1816
C8,lineage neg,1,100.00%,100.00%,35381,14449,182,246,103,8,344,1816
C8,CD34+CD38-,1,100.00%,100.00%,35381,14449,182,246,103,8,344,1816
C8,CD52+CD62L+,1,100.00%,100.00%,35381,14449,182,246,103,8,344,1816
C8,CD133+,1,100.00%,100.00%,35381,14449,182,246,103,8,344,1816
C9,All Events,1,100.00%,NaN,27885,16504,235,153,29,13,752,657
C9,Cells,1,100.00%,100.00%,27885,16504,235,153,29,13,752,657
C9,Singles,1,100.00%,100.00%,27885,16504,235,153,29,13,752,657
C9,lineage neg,1,100.00%,100.00%,27885,16504,235,153,29,13,752,657
C9,CD34+CD38-,1,100.00%,100.00%,27885,16504,235,153,29,13,752,657
C9,CD52+CD62L+,1,100.00%,100.00%,27885,16504,235,153,29,13,752,657
C9,CD133+,1,100.00%,100.00%,27885,16504,235,153,29,13,752,657
C10,All Events,1,100.00%,NaN,38608,15454,105,74,113,1,273,749
C10,Cells,1,100.00%,100.00%,38608,15454,105,74,113,1,273,749
C10,Singles,1,100.00%,100.00%,38608,15454,105,74,113,1,273,749
C10,lineage neg,1,100.00%,100.00%,38608,15454,105,74,113,1,273,749
C10,CD34+CD38-,1,100.00%,100.00%,38608,15454,105,74,113,1,273,749
C10,CD52+CD62L+,1,100.00%,100.00%,38608,15454,105,74,113,1,273,749
C10,CD133+,1,100.00%,100.00%,38608,15454,105,74,113,1,273,749
C11,All Events,1,100.00%,NaN,37673,17957,283,326,98,1,208,1845
C11,Cells,1,100.00%,100.00%,37673,17957,283,326,98,1,208,1845
C11,Singles,1,100.00%,100.00%,37673,17957,283,326,98,1,208,1845
C11,lineage neg,1,100.00%,100.00%,37673,17957,283,326,98,1,208,1845
C11,CD34+CD38-,1,100.00%,100.00%,37673,17957,283,326,98,1,208,1845
C11,CD52+CD62L+,1,100.00%,100.00%,37673,17957,283,326,98,1,208,1845
C11,CD133+,1,100.00%,100.00%,37673,17957,283,326,98,1,208,1845
C12,All Events,1,100.00%,NaN,39100,13257,176,121,71,1,63,1333
C12,Cells,1,100.00%,100.00%,39100,13257,176,121,71,1,63,1333
C12,Singles,1,100.00%,100.00%,39100,13257,176,121,71,1,63,1333
C12,lineage neg,1,100.00%,100.00%,39100,13257,176,121,71,1,63,1333
C12,CD34+CD38-,1,100.00%,100.00%,39100,13257,176,121,71,1,63,1333
C12,CD52+CD62L+,1,100.00%,100.00%,39100,13257,176,121,71,1,63,1333
C12,CD133+,1,100.00%,100.00%,39100,13257,176,121,71,1,63,1333
D1,All Events,1,100.00%,NaN,34005,13923,509,378,43,1,182,2177
D1,Cells,1,100.00%,100.00%,34005,13923,509,378,43,1,182,2177
D1,Singles,1,100.00%,100.00%,34005,13923,509,378,43,1,182,2177
D1,lineage neg,1,100.00%,100.00%,34005,13923,509,378,43,1,182,2177
D1,CD34+CD38-,1,100.00%,100.00%,34005,13923,509,378,43,1,182,2177
D1,CD52+CD62L+,1,100.00%,100.00%,34005,13923,509,378,43,1,182,2177
D1,CD133+,1,100.00%,100.00%,34005,13923,509,378,43,1,182,2177
D2,All Events,1,100.00%,NaN,37118,18288,280,669,6,12,74,2114
D2,Cells,1,100.00%,100.00%,37118,18288,280,669,6,12,74,2114
D2,Singles,1,100.00%,100.00%,37118,18288,280,669,6,12,74,2114
D2,lineage neg,1,100.00%,100.00%,37118,18288,280,669,6,12,74,2114
D2,CD34+CD38-,1,100.00%,100.00%,37118,18288,280,669,6,12,74,2114
D2,CD52+CD62L+,1,100.00%,100.00%,37118,18288,280,669,6,12,74,2114
D2,CD133+,1,100.00%,100.00%,37118,18288,280,669,6,12,74,2114
D3,All Events,1,100.00%,NaN,38489,13652,296,259,47,1,172,2509
D3,Cells,1,100.00%,100.00%,38489,13652,296,259,47,1,172,2509
D3,Singles,1,100.00%,100.00%,38489,13652,296,259,47,1,172,2509
D3,lineage neg,1,100.00%,100.00%,38489,13652,296,259,47,1,172,2509
D3,CD34+CD38-,1,100.00%,100.00%,38489,13652,296,259,47,1,172,2509
D3,CD52+CD62L+,1,100.00%,100.00%,38489,13652,296,259,47,1,172,2509
D3,CD133+,1,100.00%,100.00%,38489,13652,296,259,47,1,172,2509
D4,All Events,1,100.00%,NaN,35998,13887,217,109,111,15,356,981
D4,Cells,1,100.00%,100.00%,35998,13887,217,109,111,15,356,981
D4,Singles,1,100.00%,100.00%,35998,13887,217,109,111,15,356,981
D4,lineage neg,1,100.00%,100.00%,35998,13887,217,109,111,15,356,981
D4,CD34+CD38-,1,100.00%,100.00%,35998,13887,217,109,111,15,356,981
D4,CD52+CD62L+,1,100.00%,100.00%,35998,13887,217,109,111,15,356,981
D4,CD133+,1,100.00%,100.00%,35998,13887,217,109,111,15,356,981
D5,All Events,1,100.00%,NaN,32432,14152,121,131,120,9,579,1123
D5,Cells,1,100.00%,100.00%,32432,14152,121,131,120,9,579,1123
D5,Singles,1,100.00%,100.00%,32432,14152,121,131,120,9,579,1123
D5,lineage neg,1,100.00%,100.00%,32432,14152,121,131,120,9,579,1123
D5,CD34+CD38-,1,100.00%,100.00%,32432,14152,121,131,120,9,579,1123
D5,CD52+CD62L+,1,100.00%,100.00%,32432,14152,121,131,120,9,579,1123
D5,CD133+,1,100.00%,100.00%,32432,14152,121,131,120,9,579,1123
D6,All Events,1,100.00%,NaN,40472,14699,220,279,25,1,183,2041
D6,Cells,1,100.00%,100.00%,40472,14699,220,279,25,1,183,2041
D6,Singles,1,100.00%,100.00%,40472,14699,220,279,25,1,183,2041
D6,lineage neg,1,100.00%,100.00%,40472,14699,220,279,25,1,183,2041
D6,CD34+CD38-,1,100.00%,100.00%,40472,14699,220,279,25,1,183,2041
D6,CD52+CD62L+,1,100.00%,100.00%,40472,14699,220,279,25,1,183,2041
D6,CD133+,1,100.00%,100.00%,40472,14699,220,279,25,1,183,2041
D7,All Events,1,100.00%,NaN,37608,15978,227,455,91,6,388,1430
D7,Cells,1,100.00%,100.00%,37608,15978,227,455,91,6,388,1430
D7,Singles,1,100.00%,100.00%,37608,15978,227,455,91,6,388,1430
D7,lineage neg,1,100.00%,100.00%,37608,15978,227,455,91,6,388,1430
D7,CD34+CD38-,1,100.00%,100.00%,37608,15978,227,455,91,6,388,1430
D7,CD52+CD62L+,1,100.00%,100.00%,37608,15978,227,455,91,6,388,1430
D7,CD133+,1,100.00%,100.00%,37608,15978,227,455,91,6,388,1430
D8,All Events,1,100.00%,NaN,33596,13994,538,622,1,1,114,3261
D8,Cells,1,100.00%,100.00%,33596,13994,538,622,1,1,114,3261
D8,Singles,1,100.00%,100.00%,33596,13994,538,622,1,1,114,3261
D8,lineage neg,1,100.00%,100.00%,33596,13994,538,622,1,1,114,3261
D8,CD34+CD38-,1,100.00%,100.00%,33596,13994,538,622,1,1,114,3261
D8,CD52+CD62L+,1,100.00%,100.00%,33596,13994,538,622,1,1,114,3261
D8,CD133+,1,100.00%,100.00%,33596,13994,538,622,1,1,114,3261
D9,All Events,1,100.00%,NaN,37204,15941,221,394,12,3,181,1120
D9,Cells,1,100.00%,100.00%,37204,15941,221,394,12,3,181,1120
D9,Singles,1,100.00%,100.00%,37204,15941,221,394,12,3,181,1120
D9,lineage neg,1,100.00%,100.00%,37204,15941,221,394,12,3,181,1120
D9,CD34+CD38-,1,100.00%,100.00%,37204,15941,221,394,12,3,181,1120
D9,CD52+CD62L+,1,100.00%,100.00%,37204,15941,221,394,12,3,181,1120
D9,CD133+,1,100.00%,100.00%,37204,15941,221,394,12,3,181,1120
D10,All Events,1,100.00%,NaN,35448,15259,410,488,4,9,80,2792
D10,Cells,1,100.00%,100.00%,35448,15259,410,488,4,9,80,2792
D10,Singles,1,100.00%,100.00%,35448,15259,410,488,4,9,80,2792
D10,lineage neg,1,100.00%,100.00%,35448,15259,410,488,4,9,80,2792
D10,CD34+CD38-,1,100.00%,100.00%,35448,15259,410,488,4,9,80,2792
D10,CD52+CD62L+,1,100.00%,100.00%,35448,15259,410,488,4,9,80,2792
D10,CD133+,1,100.00%,100.00%,35448,15259,410,488,4,9,80,2792
D11,All Events,1,100.00%,NaN,36218,13572,148,192,33,1,325,1386
D11,Cells,1,100.00%,100.00%,36218,13572,148,192,33,1,325,1386
D11,Singles,1,100.00%,100.00%,36218,13572,148,192,33,1,325,1386
D11,lineage neg,1,100.00%,100.00%,36218,13572,148,192,33,1,325,1386
D11,CD34+CD38-,1,100.00%,100.00%,36218,13572,148,192,33,1,325,1386
D11,CD52+CD62L+,1,100.00%,100.00%,36218,13572,148,192,33,1,325,1386
D11,CD133+,1,100.00%,100.00%,36218,13572,148,192,33,1,325,1386
D12,All Events,1,100.00%,NaN,37558,15155,227,192,64,15,66,1494
D12,Cells,1,100.00%,100.00%,37558,15155,227,192,64,15,66,1494
D12,Singles,1,100.00%,100.00%,37558,15155,227,192,64,15,66,1494
D12,lineage neg,1,100.00%,100.00%,37558,15155,227,192,64,15,66,1494
D12,CD34+CD38-,1,100.00%,100.00%,37558,15155,227,192,64,15,66,1494
D12,CD52+CD62L+,1,100.00%,100.00%,37558,15155,227,192,64,15,66,1494
D12,CD133+,1,100.00%,100.00%,37558,15155,227,192,64,15,66,1494
E1,All Events,1,100.00%,NaN,35058,18035,167,85,75,6,488,630
E1,Cells,1,100.00%,100.00%,35058,18035,167,85,75,6,488,630
E1,Singles,1,100.00%,100.00%,35058,18035,167,85,75,6,488,630
E1,lineage neg,1,100.00%,100.00%,35058,18035,167,85,75,6,488,630
E1,CD34+CD38-,1,100.00%,100.00%,35058,18035,167,85,75,6,488,630
E1,CD52+CD62L+,1,100.00%,100.00%,35058,18035,167,85,75,6,488,630
E1,CD133+,1,100.00%,100.00%,35058,18035,167,85,75,6,488,630
E2,All Events,1,100.00%,NaN,38024,16204,190,281,90,8,189,781
E2,Cells,1,100.00%,100.00%,38024,16204,190,281,90,8,189,781
E2,Singles,1,100.00%,100.00%,38024,16204,190,281,90,8,189,781
E2,lineage neg,1,100.00%,100.00%,38024,16204,190,281,90,8,189,781
E2,CD34+CD38-,1,100.00%,100.00%,38024,16204,190,281,90,8,189,781
E2,CD52+CD62L+,1,100.00%,100.00%,38024,16204,190,281,90,8,189,781
E2,CD133+,1,100.00%,100.00%,38024,16204,190,281,90,8,189,781
E3,All Events,1,100.00%,NaN,34052,14043,165,131,109,4,274,1367
E3,Cells,1,100.00%,100.00%,34052,14043,165,131,109,4,274,1367
E3,Singles,1,100.00%,100.00%,34052,14043,165,131,109,4,274,1367
E3,lineage neg,1,100.00%,100.00%,34052,14043,165,131,109,4,274,1367
E3,CD34+CD38-,1,100.00%,100.00%,34052,14043,165,131,109,4,274,1367
E3,CD52+CD62L+,1,100.00%,100.00%,34052,14043,165,131,109,4,274,1367
E3,CD133+,1,100.00%,100.00%,34052,14043,165,131,109,4,274,1367
E4,All Events,1,100.00%,NaN,37517,12934,156,124,66,8,164,791
E4,Cells,1,100.00%,100.00%,37517,12934,156,124,66,8,164,791
E4,Singles,1,100.00%,100.00%,37517,12934,156,124,66,8,164,791
E4,lineage neg,1,100.00%,100.00%,37517,12934,156,124,66,8,164,791
E4,CD34+CD38-,1,100.00%,100.00%,37517,12934,156,124,66,8,164,791
E4,CD52+CD62L+,1,100.00%,100.00%,37517,12934,156,124,66,8,164,791
E4,CD133+,1,100.00%,100.00%,37517,12934,156,124,66,8,164,791
E5,All Events,1,100.00%,NaN,37301,14488,152,171,116,3,806,510
E5,Cells,1,100.00%,100.00%,37301,14488,152,171,116,3,806,510
E5,Singles,1,100.00%,100.00%,37301,14488,152,171,116,3,806,510
E5,lineage neg,1,100.00%,100.00%,37301,14488,152,171,116,3,806,510
E5,CD34+CD38-,1,100.00%,100.00%,37301,14488,152,171,116,3,806,510
E5,CD52+CD62L+,1,100.00%,100.00%,37301,14488,152,171,116,3,806,510
E5,CD133+,1,100.00%,100.00%,37301,14488,152,171,116,3,806,510
E6,All Events,1,100.00%,NaN,35787,18485,192,181,105,1,84,1208
E6,Cells,1,100.00%,100.00%,35787,18485,192,181,105,1,84,1208
E6,Singles,1,100.00%,100.00%,35787,18485,192,181,105,1,84,1208
E6,lineage neg,1,100.00%,100.00%,35787,18485,192,181,105,1,84,1208
E6,CD34+CD38-,1,100.00%,100.00%,35787,18485,192,181,105,1,84,1208
E6,CD52+CD62L+,1,100.00%,100.00%,35787,18485,192,181,105,1,84,1208
E6,CD133+,1,100.00%,100.00%,35787,18485,192,181,105,1,84,1208
E7,All Events,1,100.00%,NaN,36724,17434,449,369,78,1,53,2548
E7,Cells,1,100.00%,100.00%,36724,17434,449,369,78,1,53,2548
E7,Singles,1,100.00%,100.00%,36724,17434,449,369,78,1,53,2548
E7,lineage neg,1,100.00%,100.00%,36724,17434,449,369,78,1,53,2548
E7,CD34+CD38-,1,100.00%,100.00%,36724,17434,449,369,78,1,53,2548
E7,CD52+CD62L+,1,100.00%,100.00%,36724,17434,449,369,78,1,53,2548
E7,CD133+,1,100.00%,100.00%,36724,17434,449,369,78,1,53,2548
E8,All Events,1,100.00%,NaN,36604,15660,160,128,101,6,61,1096
E8,Cells,1,100.00%,100.00%,36604,15660,160,128,101,6,61,1096
E8,Singles,1,100.00%,100.00%,36604,15660,160,128,101,6,61,1096
E8,lineage neg,1,100.00%,100.00%,36604,15660,160,128,101,6,61,1096
E8,CD34+CD38-,1,100.00%,100.00%,36604,15660,160,128,101,6,61,1096
E8,CD52+CD62L+,1,100.00%,100.00%,36604,15660,160,128,101,6,61,1096
E8,CD133+,1,100.00%,100.00%,36604,15660,160,128,101,6,61,1096
E9,All Events,1,100.00%,NaN,37722,16683,130,295,45,9,472,1870
E9,Cells,1,100.00%,100.00%,37722,16683,130,295,45,9,472,1870
E9,Singles,1,100.00%,100.00%,37722,16683,130,295,45,9,472,1870
E9,lineage neg,1,100.00%,100.00%,37722,16683,130,295,45,9,472,1870
E9,CD34+CD38-,1,100.00%,100.00%,37722,16683,130,295,45,9,472,1870
E9,CD52+CD62L+,1,100.00%,100.00%,37722,16683,130,295,45,9,472,1870
E9,CD133+,1,100.00%,100.00%,37722,16683,130,295,45,9,472,1870
E10,All Events,1,100.00%,NaN,31009,16512,421,350,93,8,189,2002
E10,Cells,1,100.00%,100.00%,31009,16512,421,350,93,8,189,2002
E10,Singles,1,100.00%,100.00%,31009,16512,421,350,93,8,189,2002
E10,lineage neg,1,100.00%,100.00%,31009,16512,421,350,93,8,189,2002
E10,CD34+CD38-,1,100.00%,100.00%,31009,16512,421,350,93,8,189,2002
E10,CD52+CD62L+,1,100.00%,100.00%,31009,16512,421,350,93,8,189,2002
E10,CD133+,1,100.00%,100.00%,31009,16512,421,350,93,8,189,2002
E11,All Events,1,100.00%,NaN,29023,14776,294,514,94,8,97,1899
E11,Cells,1,100.00%,100.00%,29023,14776,294,514,94,8,97,1899
E11,Singles,1,100.00%,100.00%,29023,14776,294,514,94,8,97,1899
E11,lineage neg,1,100.00%,100.00%,29023,14776,294,514,94,8,97,1899
E11,CD34+CD38-,1,100.00%,100.00%,29023,14776,294,514,94,8,97,1899
E11,CD52+CD62L+,1,100.00%,100.00%,29023,14776,294,514,94,8,97,1899
E11,CD133+,1,100.00%,100.00%,29023,14776,294,514,94,8,97,1899
E12,All Events,1,100.00%,NaN,33822,14253,231,122,71,1,80,1028
E12,Cells,1,100.00%,100.00%,33822,14253,231,122,71,1,80,1028
E12,Singles,1,100.00%,100.00%,33822,14253,231,122,71,1,80,1028
E12,lineage neg,1,100.00%,100.00%,33822,14253,231,122,71,1,80,1028
E12,CD34+CD38-,1,100.00%,100.00%,33822,14253,231,122,71,1,80,1028
E12,CD52+CD62L+,1,100.00%,100.00%,33822,14253,231,122,71,1,80,1028
E12,CD133+,1,100.00%,100.00%,33822,14253,231,122,71,1,80,1028
F1,All Events,1,100.00%,NaN,32840,12456,455,187,103,5,71,3349
F1,Cells,1,100.00%,100.00%,32840,12456,455,187,103,5,71,3349
F1,Singles,1,100.00%,100.00%,32840,12456,455,187,103,5,71,3349
F1,lineage neg,1,100.00%,100.00%,32840,12456,455,187,103,5,71,3349
F1,CD34+CD38-,1,100.00%,100.00%,32840,12456,455,187,103,5,71,3349
F1,CD52+CD62L+,1,100.00%,100.00%,32840,12456,455,187,103,5,71,3349
F1,CD133+,1,100.00%,100.00%,32840,12456,455,187,103,5,71,3349
F2,All Events,1,100.00%,NaN,37655,14509,424,460,79,1,330,2231
F2,Cells,1,100.00%,100.00%,37655,14509,424,460,79,1,330,2231
F2,Singles,1,100.00%,100.00%,37655,14509,424,460,79,1,330,2231
F2,lineage neg,1,100.00%,100.00%,37655,14509,424,460,79,1,330,2231
F2,CD34+CD38-,1,100.00%,100.00%,37655,14509,424,460,79,1,330,2231
F2,CD52+CD62L+,1,100.00%,100.00%,37655,14509,424,460,79,1,330,2231
F2,CD133+,1,100.00%,100.00%,37655,14509,424,460,79,1,330,2231
F3,All Events,1,100.00%,NaN,41277,11830,128,572,77,1,170,2251
F3,Cells,1,100.00%,100.00%,41277,11830,128,572,77,1,170,2251
F3,Singles,1,100.00%,100.00%,41277,11830,128,572,77,1,170,2251
F3,lineage neg,1,100.00%,100.00%,41277,11830,128,572,77,1,170,2251
F3,CD34+CD38-,1,100.00%,100.00%,41277,11830,128,572,77,1,170,2251
F3,CD52+CD62L+,1,100.00%,100.00%,41277,11830,128,572,77,1,170,2251
F3,CD133+,1,100.00%,100.00%,41277,11830,128,572,77,1,170,2251
F4,All Events,1,100.00%,NaN,40284,15565,173,91,60,7,301,1313
F4,Cells,1,100.00%,100.00%,40284,15565,173,91,60,7,301,1313
F4,Singles,1,100.00%,100.00%,40284,15565,173,91,60,7,301,1313
F4,lineage neg,1,100.00%,100.00%,40284,15565,173,91,60,7,301,1313
F4,CD34+CD38-,1,100.00%,100.00%,40284,15565,173,91,60,7,301,1313
F4,CD52+CD62L+,1,100.00%,100.00%,40284,15565,173,91,60,7,301,1313
F4,CD133+,1,100.00%,100.00%,40284,15565,173,91,60,7,301,1313
F5,All Events,1,100.00%,NaN,39319,13447,166,222,83,8,693,1072
F5,Cells,1,100.00%,100.00%,39319,13447,166,222,83,8,693,1072
F5,Singles,1,100.00%,100.00%,39319,13447,166,222,83,8,693,1072
F5,lineage neg,1,100.00%,100.00%,39319,13447,166,222,83,8,693,1072
F5,CD34+CD38-,1,100.00%,100.00%,39319,13447,166,222,83,8,693,1072
F5,CD52+CD62L+,1,100.00%,100.00%,39319,13447,166,222,83,8,693,1072
F5,CD133+,1,100.00%,100.00%,39319,13447,166,222,83,8,693,1072
F6,All Events,1,100.00%,NaN,36265,14032,315,222,51,6,77,2211
F6,Cells,1,100.00%,100.00%,36265,14032,315,222,51,6,77,2211
F6,Singles,1,100.00%,100.00%,36265,14032,315,222,51,6,77,2211
F6,lineage neg,1,100.00%,100.00%,36265,14032,315,222,51,6,77,2211
F6,CD34+CD38-,1,100.00%,100.00%,36265,14032,315,222,51,6,77,2211
F6,CD52+CD62L+,1,100.00%,100.00%,36265,14032,315,222,51,6,77,2211
F6,CD133+,1,100.00%,100.00%,36265,14032,315,222,51,6,77,2211
F7,All Events,1,100.00%,NaN,33778,14150,321,349,30,9,679,3007
F7,Cells,1,100.00%,100.00%,33778,14150,321,349,30,9,679,3007
F7,Singles,1,100.00%,100.00%,33778,14150,321,349,30,9,679,3007
F7,lineage neg,1,100.00%,100.00%,33778,14150,321,349,30,9,679,3007
F7,CD34+CD38-,1,100.00%,100.00%,33778,14150,321,349,30,9,679,3007
F7,CD52+CD62L+,1,100.00%,100.00%,33778,14150,321,349,30,9,679,3007
F7,CD133+,1,100.00%,100.00%,33778,14150,321,349,30,9,679,3007
F8,All Events,1,100.00%,NaN,36274,14981,181,147,88,1,251,1072
F8,Cells,1,100.00%,100.00%,36274,14981,181,147,88,1,251,1072
F8,Singles,1,100.00%,100.00%,36274,14981,181,147,88,1,251,1072
F8,lineage neg,1,100.00%,100.00%,36274,14981,181,147,88,1,251,1072
F8,CD34+CD38-,1,100.00%,100.00%,36274,14981,181,147,88,1,251,1072
F8,CD52+CD62L+,1,100.00%,100.00%,36274,14981,181,147,88,1,251,1072
F8,CD133+,1,100.00%,100.00%,36274,14981,181,147,88,1,251,1072
F9,All Events,1,100.00%,NaN,36914,18056,304,476,53,14,88,1645
F9,Cells,1,100.00%,100.00%,36914,18056,304,476,53,14,88,1645
F9,Singles,1,100.00%,100.00%,36914,18056,304,476,53,14,88,1645
F9,lineage neg,1,100.00%,100.00%,36914,18056,304,476,53,14,88,1645
F9,CD34+CD38-,1,100.00%,100.00%,36914,18056,304,476,53,14,88,1645
F9,CD52+CD62L+,1,100.00%,100.00%,36914,18056,304,476,53,14,88,1645
F9,CD133+,1,100.00%,100.00%,36914,18056,304,476,53,14,88,1645
F10,All Events,1,100.00%,NaN,40511,16270,504,289,26,12,95,2055
F10,Cells,1,100.00%,100.00%,40511,16270,504,289,26,12,95,2055
F10,Singles,1,100.00%,100.00%,40511,16270,504,289,26,12,95,2055
F10,lineage neg,1,100.00%,100.00%,40511,16270,504,289,26,12,95,2055
F10,CD34+CD38-,1,100.00%,100.00%,40511,16270,504,289,26,12,95,2055
F10,CD52+CD62L+,1,100.00%,100.00%,40511,16270,504,289,26,12,95,2055
F10,CD133+,1,100.00%,100.00%,40511,16270,504,289,26,12,95,2055
F11,All Events,1,100.00%,NaN,48522,22557,244,181,30,15,325,1352
F11,Cells,1,100.00%,100.00%,48522,22557,244,181,30,15,325,1352
F11,Singles,1,100.00%,100.00%,48522,22557,244,181,30,15,325,1352
F11,lineage neg,1,100.00%,100.00%,48522,22557,244,181,30,15,325,1352
F11,CD34+CD38-,1,100.00%,100.00%,48522,22557,244,181,30,15,325,1352
F11,CD52+CD62L+,1,100.00%,100.00%,48522,22557,244,181,30,15,325,1352
F11,CD133+,1,100.00%,100.00%,48522,22557,244,181,30,15,325,1352
F12,All Events,1,100.00%,NaN,39871,17722,239,111,95,1,67,2246
F12,Cells,1,100.00%,100.00%,39871,17722,239,111,95,1,67,2246
F12,Singles,1,100.00%,100.00%,39871,17722,239,111,95,1,67,2246
F12,lineage neg,1,100.00%,100.00%,39871,17722,239,111,95,1,67,2246
F12,CD34+CD38-,1,100.00%,100.00%,39871,17722,239,111,95,1,67,2246
F12,CD52+CD62L+,1,100.00%,100.00%,39871,17722,239,111,95,1,67,2246
F12,CD133+,1,100.00%,100.00%,39871,17722,239,111,95,1,67,2246
G1,All Events,1,100.00%,NaN,33866,12686,427,522,67,7,100,2734
G1,Cells,1,100.00%,100.00%,33866,12686,427,522,67,7,100,2734
G1,Singles,1,100.00%,100.00%,33866,12686,427,522,67,7,100,2734
G1,lineage neg,1,100.00%,100.00%,33866,12686,427,522,67,7,100,2734
G1,CD34+CD38-,1,100.00%,100.00%,33866,12686,427,522,67,7,100,2734
G1,CD52+CD62L+,1,100.00%,100.00%,33866,12686,427,522,67,7,100,2734
G1,CD133+,1,100.00%,100.00%,33866,12686,427,522,67,7,100,2734
G2,All Events,1,100.00%,NaN,32182,17989,139,100,68,1,236,876
G2,Cells,1,100.00%,100.00%,32182,17989,139,100,68,1,236,876
G2,Singles,1,100.00%,100.00%,32182,17989,139,100,68,1,236,876
G2,lineage neg,1,100.00%,100.00%,32182,17989,139,100,68,1,236,876
G2,CD34+CD38-,1,100.00%,100.00%,32182,17989,139,100,68,1,236,876
G2,CD52+CD62L+,1,100.00%,100.00%,32182,17989,139,100,68,1,236,876
G2,CD133+,1,100.00%,100.00%,32182,17989,139,100,68,1,236,876
G3,All Events,1,100.00%,NaN,34686,15538,586,276,18,14,197,2509
G3,Cells,1,100.00%,100.00%,34686,15538,586,276,18,14,197,2509
G3,Singles,1,100.00%,100.00%,34686,15538,586,276,18,14,197,2509
G3,lineage neg,1,100.00%,100.00%,34686,15538,586,276,18,14,197,2509
G3,CD34+CD38-,1,100.00%,100.00%,34686,15538,586,276,18,14,197,2509
G3,CD52+CD62L+,1,100.00%,100.00%,34686,15538,586,276,18,14,197,2509
G3,CD133+,1,100.00%,100.00%,34686,15538,586,276,18,14,197,2509
G4,All Events,1,100.00%,NaN,34272,16678,181,174,67,1,456,1582
G4,Cells,1,100.00%,100.00%,34272,16678,181,174,67,1,456,1582
G4,Singles,1,100.00%,100.00%,34272,16678,181,174,67,1,456,1582
G4,lineage neg,1,100.00%,100.00%,34272,16678,181,174,67,1,456,1582
G4,CD34+CD38-,1,100.00%,100.00%,34272,16678,181,174,67,1,456,1582
G4,CD52+CD62L+,1,100.00%,100.00%,34272,16678,181,174,67,1,456,1582
G4,CD133+,1,100.00%,100.00%,34272,16678,181,174,67,1,456,1582
G5,All Events,1,100.00%,NaN,39013,15239,312,516,111,7,106,3105
G5,Cells,1,100.00%,100.00%,39013,15239,312,516,111,7,106,3105
G5,Singles,1,100.00%,100.00%,39013,15239,312,516,111,7,106,3105
G5,lineage neg,1,100.00%,100.00%,39013,15239,312,516,111,7,106,3105
G5,CD34+CD38-,1,100.00%,100.00%,39013,15239,312,516,111,7,106,3105
G5,CD52+CD62L+,1,100.00%,100.00%,39013,15239,312,516,111,7,106,3105
G5,CD133+,1,100.00%,100.00%,39013,15239,312,516,111,7,106,3105
G6,All Events,1,100.00%,NaN,40587,12231,217,279,43,13,145,2065
G6,Cells,1,100.00%,100.00%,40587,12231,217,279,43,13,145,2065
G6,Singles,1,100.00%,100.00%,40587,12231,217,279,43,13,145,2065
G6,lineage neg,1,100.00%,100.00%,40587,12231,217,279,43,13,145,2065
G6,CD34+CD38-,1,100.00%,100.00%,40587,12231,217,279,43,13,145,2065
G6,CD52+CD62L+,1,100.00%,100.00%,40587,12231,217,279,43,13,145,2065
G6,CD133+,1,100.00%,100.00%,40587,12231,217,279,43,13,145,2065
G7,All Events,1,100.00%,NaN,37657,13884,281,640,65,7,60,2343
G7,Cells,1,100.00%,100.00%,37657,13884,281,640,65,7,60,2343
G7,Singles,1,100.00%,100.00%,37657,13884,281,640,65,7,60,2343
G7,lineage neg,1,100.00%,100.00%,37657,13884,281,640,65,7,60,2343
G7,CD34+CD38-,1,100.00%,100.00%,37657,13884,281,640,65,7,60,2343
G7,CD52+CD62L+,1,100.00%,100.00%,37657,13884,281,640,65,7,60,2343
G7,CD133+,1,100.00%,100.00%,37657,13884,281,640,65,7,60,2343
G8,All Events,1,100.00%,NaN,37422,11632,110,69,53,1,168,828
G8,Cells,1,100.00%,100.00%,37422,11632,110,69,53,1,168,828
G8,Singles,1,100.00%,100.00%,37422,11632,110,69,53,1,168,828
G8,lineage neg,1,100.00%,100.00%,37422,11632,110,69,53,1,168,828
G8,CD34+CD38-,1,100.00%,100.00%,37422,11632,110,69,53,1,168,828
G8,CD52+CD62L+,1,100.00%,100.00%,37422,11632,110,69,53,1,168,828
G8,CD133+,1,100.00%,100.00%,37422,11632,110,69,53,1,168,828
G9,All Events,1,100.00%,NaN,34706,13966,511,236,105,6,70,2485
G9,Cells,1,100.00%,100.00%,34706,13966,511,236,105,6,70,2485
G9,Singles,1,100.00%,100.00%,34706,13966,511,236,105,6,70,2485
G9,lineage neg,1,100.00%,100.00%,34706,13966,511,236,105,6,70,2485
G9,CD34+CD38-,1,100.00%,100.00%,34706,13966,511,236,105,6,70,2485
G9,CD52+CD62L+,1,100.00%,100.00%,34706,13966,511,236,105,6,70,2485
G9,CD133+,1,100.00%,100.00%,34706,13966,511,236,105,6,70,2485
G10,All Events,1,100.00%,NaN,34696,13782,218,53,117,3,178,1557
G10,Cells,1,100.00%,100.00%,34696,13782,218,53,117,3,178,1557
G10,Singles,1,100.00%,100.00%,34696,13782,218,53,117,3,178,1557
G10,lineage neg,1,100.00%,100.00%,34696,13782,218,53,117,3,178,1557
G10,CD34+CD38-,1,100.00%,100.00%,34696,13782,218,53,117,3,178,1557
G10,CD52+CD62L+,1,100.00%,100.00%,34696,13782,218,53,117,3,178,1557
G10,CD133+,1,100.00%,100.00%,34696,13782,218,53,117,3,178,1557
G11,All Events,1,100.00%,NaN,37844,15359,413,443,102,1,66,2353
G11,Cells,1,100.00%,100.00%,37844,15359,413,443,102,1,66,2353
G11,Singles,1,100.00%,100.00%,37844,15359,413,443,102,1,66,2353
G11,lineage neg,1,100.00%,100.00%,37844,15359,413,443,102,1,66,2353
G11,CD34+CD38-,1,100.00%,100.00%,37844,15359,413,443,102,1,66,2353
G11,CD52+CD62L+,1,100.00%,100.00%,37844,15359,413,443,102,1,66,2353
G11,CD133+,1,100.00%,100.00%,37844,15359,413,443,102,1,66,2353
G12,All Events,1,100.00%,NaN,32442,13271,364,305,42,1,82,2656
G12,Cells,1,100.00%,100.00%,32442,13271,364,305,42,1,82,2656
G12,Singles,1,100.00%,100.00%,32442,13271,364,305,42,1,82,2656
G12,lineage neg,1,100.00%,100.00%,32442,13271,364,305,42,1,82,2656
G12,CD34+CD38-,1,100.00%,100.00%,32442,13271,364,305,42,1,82,2656
G12,CD52+CD62L+,1,100.00%,100.00%,32442,13271,364,305,42,1,82,2656
G12,CD133+,1,100.00%,100.00%,32442,13271,364,305,42,1,82,2656
H1,All Events,1,100.00%,NaN,36561,11409,295,140,40,1,367,1704
H1,Cells,1,100.00%,100.00%,36561,11409,295,140,40,1,367,1704
H1,Singles,1,100.00%,100.00%,36561,11409,295,140,40,1,367,1704
H1,lineage neg,1,100.00%,100.00%,36561,11409,295,140,40,1,367,1704
H1,CD34+CD38-,1,100.00%,100.00%,36561,11409,295,140,40,1,367,1704
H1,CD52+CD62L+,1,100.00%,100.00%,36561,11409,295,140,40,1,367,1704
H1,CD133+,1,100.00%,100.00%,36561,11409,295,140,40,1,367,1704
H2,All Events,1,100.00%,NaN,33892,13595,139,98,98,1,409,1186
H2,Cells,1,100.00%,100.00%,33892,13595,139,98,98,1,409,1186
H2,Singles,1,100.00%,100.00%,33892,13595,139,98,98,1,409,1186
H2,lineage neg,1,100.00%,100.00%,33892,13595,139,98,98,1,409,1186
H2,CD34+CD38-,1,100.00%,100.00%,33892,13595,139,98,98,1,409,1186
H2,CD52+CD62L+,1,100.00%,100.00%,33892,13595,139,98,98,1,409,1186
H2,CD133+,1,100.00%,100.00%,33892,13595,139,98,98,1,409,1186
H3,All Events,1,100.00%,NaN,36310,14202,253,212,83,13,327,1265
H3,Cells,1,100.00%,100.00%,36310,14202,253,212,83,13,327,1265
H3,Singles,1,100.00%,100.00%,36310,14202,253,212,83,13,327,1265
H3,lineage neg,1,100.00%,100.00%,36310,14202,253,212,83,13,327,1265
H3,CD34+CD38-,1,100.00%,100.00%,36310,14202,253,212,83,13,327,1265
H3,CD52+CD62L+,1,100.00%,100.00%,36310,14202,253,212,83,13,327,1265
H3,CD133+,1,100.00%,100.00%,36310,14202,253,212,83,13,327,1265
H4,All Events,1,100.00%,NaN,41432,16828,353,497,27,6,65,1982
H4,Cells,1,100.00%,100.00%,41432,16828,353,497,27,6,65,1982
H4,Singles,1,100.00%,100.00%,41432,16828,353,497,27,6,65,1982
H4,lineage neg,1,100.00%,100.00%,41432,16828,353,497,27,6,65,1982
H4,CD34+CD38-,1,100.00%,100.00%,41432,16828,353,497,27,6,65,1982
H4,CD52+CD62L+,1,100.00%,100.00%,41432,16828,353,497,27,6,65,1982
H4,CD133+,1,100.00%,100.00%,41432,16828,353,497,27,6,65,1982
H5,All Events,1,100.00%,NaN,37314,12578,328,767,51,1,124,2192
H5,Cells,1,100.00%,100.00%,37314,12578,328,767,51,1,124,2192
H5,Singles,1,100.00%,100.00%,37314,12578,328,767,51,1,124,2192
H5,lineage neg,1,100.00%,100.00%,37314,12578,328,767,51,1,124,2192
H5,CD34+CD38-,1,100.00%,100.00%,37314,12578,328,767,51,1,124,2192
H5,CD52+CD62L+,1,100.00%,100.00%,37314,12578,328,767,51,1,124,2192
H5,CD133+,1,100.00%,100.00%,37314,12578,328,767,51,1,124,2192
H6,All Events,1,100.00%,NaN,39801,15593,261,174,106,1,103,1875
H6,Cells,1,100.00%,100.00%,39801,15593,261,174,106,1,103,1875
H6,Singles,1,100.00%,100.00%,39801,15593,261,174,106,1,103,1875
H6,lineage neg,1,100.00%,100.00%,39801,15593,261,174,106,1,103,1875
H6,CD34+CD38-,1,100.00%,100.00%,39801,15593,261,174,106,1,103,1875
H6,CD52+CD62L+,1,100.00%,100.00%,39801,15593,261,174,106,1,103,1875
H6,CD133+,1,100.00%,100.00%,39801,15593,261,174,106,1,103,1875
H7,All Events,1,100.00%,NaN,35259,14538,157,71,84,6,237,737
H7,Cells,1,100.00%,100.00%,35259,14538,157,71,84,6,237,737
H7,Singles,1,100.00%,100.00%,35259,14538,157,71,84,6,237,737
H7,lineage neg,1,100.00%,100.00%,35259,14538,157,71,84,6,237,737
H7,CD34+CD38-,1,100.00%,100.00%,35259,14538,157,71,84,6,237,737
H7,CD52+CD62L+,1,100.00%,100.00%,35259,14538,157,71,84,6,237,737
H7,CD133+,1,100.00%,100.00%,35259,14538,157,71,84,6,237,737
H8,All Events,1,100.00%,NaN,37261,14749,155,121,35,2,77,1382
H8,Cells,1,100.00%,100.00%,37261,14749,155,121,35,2,77,1382
H8,Singles,1,100.00%,100.00%,37261,14749,155,121,35,2,77,1382
H8,lineage neg,1,100.00%,100.00%,37261,14749,155,121,35,2,77,1382
H8,CD34+CD38-,1,100.00%,100.00%,37261,14749,155,121,35,2,77,1382
H8,CD52+CD62L+,1,100.00%,100.00%,37261,14749,155,121,35,2,77,1382
H8,CD133+,1,100.00%,100.00%,37261,14749,155,121,35,2,77,1382
H9,All Events,1,100.00%,NaN,35558,13166,125,108,117,2,164,1023
H9,Cells,1,100.00%,100.00%,35558,13166,125,108,117,2,164,1023
H9,Singles,1,100.00%,100.00%,35558,13166,125,108,117,2,164,1023
H9,lineage neg,1,100.00%,100.00%,35558,13166,125,108,117,2,164,1023
H9,CD34+CD38-,1,100.00%,100.00%,35558,13166,125,108,117,2,164,1023
H9,CD52+CD62L+,1,100.00%,100.00%,35558,13166,125,108,117,2,164,1023
H9,CD133+,1,100.00%,100.00%,35558,13166,125,108,117,2,164,1023
H10,All Events,1,100.00%,NaN,30302,14105,323,598,110,4,110,1855
H10,Cells,1,100.00%,100.00%,30302,14105,323,598,110,4,110,1855
H10,Singles,1,100.00%,100.00%,30302,14105,323,598,110,4,110,1855
H10,lineage neg,1,100.00%,100.00%,30302,14105,323,598,110,4,110,1855
H10,CD34+CD38-,1,100.00%,100.00%,30302,14105,323,598,110,4,110,1855
H10,CD52+CD62L+,1,100.00%,100.00%,30302,14105,323,598,110,4,110,1855
H10,CD133+,1,100.00%,100.00%,30302,14105,323,598,110,4,110,1855
H11,All Events,0,NaN,NaN,NaN,NaN,NaN,NaN,NaN,NaN,NaN,NaN
H11,Cells,0,NaN,NaN,NaN,NaN,NaN,NaN,NaN,NaN,NaN,NaN
H11,Singles,0,NaN,NaN,NaN,NaN,NaN,NaN,NaN,NaN,NaN,NaN
H11,lineage neg,0,NaN,NaN,NaN,NaN,NaN,NaN,NaN,NaN,NaN,NaN
H11,CD34+CD38-,0,NaN,NaN,NaN,NaN,NaN,NaN,NaN,NaN,NaN,NaN
H11,CD52+CD62L+,0,NaN,NaN,NaN,NaN,NaN,NaN,NaN,NaN,NaN,NaN
H11,CD133+,0,NaN,NaN,NaN,NaN,NaN,NaN,NaN,NaN,NaN,NaN
H12,All Events,0,NaN,NaN,NaN,NaN,NaN,NaN,NaN,NaN,NaN,NaN
H12,Cells,0,NaN,NaN,NaN,NaN,NaN,NaN,NaN,NaN,NaN,NaN
H12,Singles,0,NaN,NaN,NaN,NaN,NaN,NaN,NaN,NaN,NaN,NaN
H12,lineage neg,0,NaN,NaN,NaN,NaN,NaN,NaN,NaN,NaN,NaN,NaN
H12,CD34+CD38-,0,NaN,NaN,NaN,NaN,NaN,NaN,NaN,NaN,NaN,NaN
H12,CD52+CD62L+,0,NaN,NaN,NaN,NaN,NaN,NaN,NaN,NaN,NaN,NaN
H12,CD133+,0,NaN,NaN,NaN,NaN,NaN,NaN,NaN,NaN,NaN,NaN
